/* XPM */
static char * KandW_xpm[] = {
"29 40 2 1",
" 	c None",
".	c #000000",
"                             ",
"                             ",
" ...                .   .    ",
" . .. .. .  . .  .. ......   ",
" ...  ... . . . . . . . .    ",
" .  . . . . . . . . . . .    ",
" .  . . . . . . . . . . .    ",
" ...  .  .  ...  .. . . ..   ",
"                  .          ",
"    .                        ",
"    .. .    . .  .  . .      ",
"    . . .   . . . . . .      ",
"    . . .    .  . . . .      ",
"    . . .    .  . . . .      ",
"    .. .     .   .  ...      ",
"             .               ",
"                             ",
"    .         . .            ",
"    ..  . .  ......  .       ",
"    . . . .   . . . . .      ",
"    . .  .    . . . ...      ",
"    . .  .    . . . .        ",
"    ..   .    ... .  ..      ",
"         .                   ",
"                             ",
"    .     . .                ",
"    .  . ..... .  .. ..      ",
"    . . . . . . . ...        ",
"    . ... . . ... .  .       ",
"    . .   . . .   .   .      ",
"    .  .. .... .. . ..       ",
"                             ",
".  .             .   .  .  . ",
". .    ..  ...  ..   . . . . ",
"..       . . . . .   . . . . ",
". .    . . . . . .   . . . . ",
". .    . . . . . .   . . . . ",
".  .   ... . .  ..    .   .  ",
"                             ",
"                             "};
