/* XPM */
static char *kegs_xpm[] = {
/* width height num_colors chars_per_pixel */
"   350   100      256            2",
/* colors */
".. c #050305",
".# c #818279",
".a c #3c422f",
".b c #cbc3b1",
".c c #3c1904",
".d c #b48966",
".e c #744634",
".f c #0c2204",
".g c #e3e3d3",
".h c #baa78b",
".i c #5b5a4a",
".j c #78684a",
".k c #a29b8b",
".l c #2a230b",
".m c #e6c3a2",
".n c #240504",
".o c #d4a790",
".p c #584429",
".q c #95704c",
".r c #9f8468",
".s c #412f12",
".t c #0a130f",
".u c #b7b6a4",
".v c #574845",
".w c #f3f3e3",
".x c #827768",
".y c #ecd3b3",
".z c #5d3d20",
".A c #2a3323",
".B c #0b3331",
".C c #40312f",
".D c #9d8985",
".E c #dad3c2",
".F c #b8a9a7",
".G c #181409",
".H c #092529",
".I c #fae3ca",
".J c #b89778",
".K c #776966",
".L c #584f39",
".M c #e5d5cf",
".N c #272525",
".O c #cac4c0",
".P c #cda080",
".Q c #938f81",
".R c #150504",
".S c #413b23",
".T c #6b6656",
".U c #999b97",
".V c #a18f78",
".W c #bbb7b2",
".X c #585048",
".Y c #b49997",
".Z c #162429",
".0 c #c7a886",
".1 c #f7e5e5",
".2 c #261409",
".3 c #d6b89b",
".4 c #674527",
".5 c #775731",
".6 c #091421",
".7 c #7b7875",
".8 c #413c30",
".9 c #866849",
"#. c #90836b",
"## c #e6cabf",
"#a c #f4f4f1",
"#b c #957970",
"#c c #4b4e3b",
"#d c #151926",
"#e c #281c0e",
"#f c #2b2b19",
"#g c #d6c5bf",
"#h c #f6d5be",
"#i c #a0948d",
"#j c #b9a086",
"#k c #a3a8a2",
"#l c #67514a",
"#m c #4e3116",
"#n c #755d51",
"#o c #4a4330",
"#p c #695b4e",
"#q c #c8b8b2",
"#r c #070b0b",
"#s c #c5aea8",
"#t c #d5bdb8",
"#u c #918586",
"#v c #40250c",
"#w c #ac8465",
"#x c #2a3332",
"#y c #f7d9cc",
"#z c #191b14",
"#A c #faecd8",
"#B c #846e68",
"#C c #eae4e0",
"#D c #967c5f",
"#E c #292c28",
"#F c #c8b097",
"#G c #695d5c",
"#H c #182419",
"#I c #e7cbb0",
"#J c #49443f",
"#K c #4c290c",
"#L c #162c30",
"#M c #675035",
"#N c #e4bc9f",
"#O c #4d3d32",
"#P c #fcfcf6",
"#Q c #341d0c",
"#R c #ac958c",
"#S c #d8c4ae",
"#T c #574a37",
"#U c #9d8879",
"#V c #0b2c2d",
"#W c #a99c98",
"#X c #091c25",
"#Y c #877055",
"#Z c #d9ccc2",
"#0 c #3e291f",
"#1 c #342512",
"#2 c #8c7867",
"#3 c #e9dcd2",
"#4 c #cabeb5",
"#5 c #dad4d0",
"#6 c #b9b0aa",
"#7 c #d8bea6",
"#8 c #664936",
"#9 c #887977",
"a. c #333b32",
"a# c #15322b",
"aa c #845634",
"ab c #b68d76",
"ac c #c9b79f",
"ad c #ac7e6c",
"ae c #4d342f",
"af c #654a46",
"ag c #fcfbe3",
"ah c #b6a19a",
"ai c #523c22",
"aj c #a77c5e",
"ak c #ac9a78",
"al c #b7906c",
"am c #775235",
"an c #d6af95",
"ao c #92908d",
"ap c #173337",
"aq c #250d04",
"ar c #6c3e2c",
"as c #c49779",
"at c #f4cdbc",
"au c #aca79f",
"av c #84624c",
"aw c #0a2c1c",
"ax c #bbae9b",
"ay c #7a6f5b",
"az c #e9dbc3",
"aA c #160c07",
"aB c #796141",
"aC c #f8dbc2",
"aD c #dbcbb4",
"aE c #ece4d2",
"aF c #94755f",
"aG c #343321",
"aH c #ac8e84",
"aI c #6c6966",
"aJ c #ac9276",
"aK c #091b0e",
"aL c #79706a",
"aM c #ccccc5",
"aN c #f8ede8",
"aO c #ebebe3",
"aP c #182b18",
"aQ c #dcdbd4",
"aR c #856141",
"aS c #fcf4e1",
"aT c #342c17",
"aU c #342d27",
"aV c #c4a294",
"aW c #ac9c89",
"aX c #5c3e39",
"aY c #b69986",
"aZ c #c6a996",
"a0 c #341508",
"a1 c #fcf5f0",
"a2 c #271e1e",
"a3 c #c4a086",
"a4 c #060d1e",
"a5 c #34342e",
"a6 c #f4cdab",
"a7 c #74524c",
"a8 c #403622",
"a9 c #928a78",
"b. c #e5cec0",
"b# c #957e72",
"ba c #67564c",
"bb c #4e361c",
"bc c #776256",
"bd c #696251",
"be c #c5b2ac",
"bf c #84726b",
"bg c #897e78",
"bh c #ccbe9e",
"bi c #342626",
"bj c #340e0c",
"bk c #ac969e",
"bl c #c4926c",
"bm c #ac8a6b",
"bn c #8c7e6a",
"bo c #acaea4",
"bp c #3e1e05",
"bq c #977650",
"br c #a18a6a",
"bs c #847e6a",
"bt c #3f362f",
"bu c #a08e89",
"bv c #5c563c",
"bw c #949684",
"bx c #6c6e5c",
"by c #a4967c",
"bz c #bbbeb7",
"bA c #5b564d",
"bB c #654a2a",
"bC c #161e28",
"bD c #4c4a33",
"bE c #938a86",
"bF c #422a12",
"bG c #f8ded0",
"bH c #69625f",
"bI c #4b4a41",
"bJ c #6b563b",
"bK c #a9a29b",
"bL c #b8927c",
"bM c #949698",
"bN c #143a37",
"bO c #060615",
"bP c #848687",
"bQ c #3a443d",
"bR c #07231a",
"bS c #b9a898",
"bT c #5c5b55",
"bU c #776859",
"bV c #282418",
"bW c #e6c5af",
"bX c #564438",
"bY c #3f3020",
"bZ c #e8d4c1",
"b0 c #171516",
"b1 c #f7e4d7",
"b2 c #cca291",
"b3 c #162535",
"b4 c #d7b9a8",
"b5 c #775944",
"b6 c #413d3d",
"b7 c #846959",
"b8 c #918478",
"b9 c #4c4f45",
/* pixels */
"#L#V#L#V#L#V#L#V#V#V#V#V#V.H#V.H#V.Haw.H.H.H.H.H.H#V.Haw#V#V#V#V#V#V#L#V#V#L#V#V#V#L#V#V#V#L#V#V#V#V#V#V#V#V#V#V#V#V#V#V#V#V#V#V#V#V#V#V#V#V#V#V#V#V#V.B#V.B#V.B#V.B#V.B#V.B#V.B#V.B#V.B#V.B#V.B#V.B#V.B#V.B#V.B#V.B#V.B#V.B#V.B#V#V#V#V#V#V#V#V#V#V#V#V#V#V#V#V#V#V#V#V#V#V#V#V#V#V#V#V#V#V#V#V#V#V#V#V#V#V.B#V#V#V#L#V#L#L#L#L#L#Lb3#L#Lb3#L#L#V#L#V#V#V#V#V#V#V#V#V#V#V#V#V#V#V#V#V#V#V#V#V#V#V#V#V#V#V#V#V#V#V#V#V#V#V#V#V#V#V#V#V#V#V#V#V#V#V#V#V#V#V#V#V#L#V#V#L#V#L#V#V#L#V#V#V#V#V#V#V#V#V#V#V#V#V#V#V#V#V#V#V#V#V#V#V#V#V#V#V#V#V#V#V#L#V#V#V#L#V#V#V#L#V#V#V#L#V#V#V#L#V#V#V#V#V#V#V#V#V#V#V#V#V#V#V#V#V#V#V#V#V#V#V#V#V#V#V#V#V#V#V#V#V#V#V#V#V#V#V#V#V#V#V#V#V#V#V#V#V#V#V#V#V#V#V#V.B#V.B#V.B.H.H#V#V#V#L#L#L#L",
"#V#V#V#V#V#V#V#V#V.H#V.H.H.H.H.H.H.H.HbR#XbRbRbR.HbR.H.H.H.H.H#V.H#V#V#V#V#V#V#V#V#V#V.H#V#V#V#V#V#V#V#V#V#V#V#V#V#V#V#V#V#V#V#V#V#V#V#V#V#V#V#V#V#V#V#V#Vaw#Vaw#Vaw#Vaw#Vaw#Vaw#Vaw#Vaw#Vaw#Vaw#Vaw#Vaw#Vaw#Vaw#Vaw#Vaw#Vaw#Vaw#V#V#V#V#V#V#V#V#V#V#V#V#V#V#V#V#V#V#V#V#V#V#V#V#V#V#V#V#V#V#V#V#V#V#V#V#V#V#V#V.B#V#V#V#V#V#Vb3.Hb3#Lb3#Lb3#V#L.H#V.H#V#V#V#V#V#V#V#V#V#V#V#V#V#V#V#V#V#V#V#V#V#V#V#V#V#V#V#V#V#V#V#V#V#V#V#V#V#V#V#V#V#V#V#V#V#V#V#V#V#V#V#V#V#V.H.H.H.H.H.H#V.H#V.H#V.H#V#V.H#V#V#V#V#V#V#V#V#V#V#V#V#V#V#V#V#V#V#V#V#V#V#V#V#V#V#V#V#V#V#V#V#V#V#V#V#V#V#V#V#V#V#V#V#V#V#V#V#V#V#V#V#V#V#V#V#V#V#V#V#V#V#V#V#V#V#V#V#V#V#V#V#V#V#V#V#V#V#V#V#V#V#V#V#V#V#V#V#V#V#V#V#V#V#V#V.B#V.B.B#V#V#V.H.H.H#V#V.H#L",
"#V#V#V#V#V#V#V#V#V#L#V#V#V.H#V.H.H.H.H#X#XbR#X#X.H.H#V.H#V#V#V#V#V.H#V.H.H.H#V.H#L#V#L#L#V#L#V.H#L.H#V.H.H.H.H.Hb3.H.H#L#L.H.H#L#V#L#V#L#V.H#L.B#L#V#V#V#V#V#V#V.H#V.Haw#V#V#V#V#V#V#V.B.B.B#V#V#V#V.H.H.Haw.H#V.B#V#V#V.B.B#V#V#V#V#V#V#V#V#V#V#V#V.B#V#V.B#V.B#V.B#V.B.B#V.B.B#V.B.B#V.B#V.B.B#V.B#V.B#V.BbNbN.B.B.B#V#V#Vb3#Vb3apb3apapapapap#V#L#V.H.H#V#V.B.B.B.B.B#V#V#V#V#V#V#V#V#V#V#V#V#V#V#V#V#V#V#V#V#V#V#V#V#V#V.H.H#V#V#V#V#V#V#Vap#V#V#V#V#V.H.H.H#V#L#V#La#ap#La##La##V#L#V#V#V#L#V#V#V#V#V#V#V#V#V#V#V.B#V#V#V#V#V#V#V#V#V#V#V#V#V#V#V#V#V#V#V#V#V#V#V#V#V#V#V#V#V#V#V#V#V#V#V#V#V#V#V#V#V#V#V#V#V#V#V#V#V#V#V#V#V#V#V#V#V#V#V#V#V#V#V#V#V#V#V#V#V#V#V#V#V#V#V#V#V#V#V#V.B#V.B#V#V#V#V#V#V#V#V.B#V.B.H#V#L#L",
"#V#V#V#V#L#V#Vb3#V#V.H#V.H.H.H.H.H.H.H#X#X#X.H.H.H.H.H#V#V#V#L#Vb3#V.H.H#V.H.H#V.H.H#V.H#V.H#V#V#V#V#V#V#V#V#V#V.B.Bap.B#V.Bap#V#V#V#V#V#L.B#V#V#V.B#V#V#Vaw.Haw.B.B.B.B#V#Vaw.B.B#V.B#V.B#Vaw#V.B.Baw#Vaw#V#V.B.B#Vaw#Vaw#V.B.B#V#V#V#V#V#V#V#V#V#V#V#V#V#V#V#V#V#V#V#V#V#V#V#V.B#V#V#V#V.B#V#V#V#V.B#V#V#V#V#V.B#Vap.Bapap.Bb3#Lb3apb3apb3ap#xapapap#V#V#V.H#V#V#V#V#V#V#V.H.H.H#Vb3#Lap#L#L#L#L#L#L#L#L#L#L#L#L#L#L#L#L#Lapap#L#L#L#L#Lb3#Vb3.Hb3#Vb3.Hb3#Vb3apapapap#L#V#L.H.H.H.H.H.H.H#L#L#Lapapapapapa#apap.B#V#V#V#V#Vaw#V#Vaw.Haw.H.H#V.H#V.H#V.H.H#V.H#V.H#V.H#V.H#V.H#V#V#V#V#V#V#V#V#V#V#V#V#V#V#V#V#V#V#V#V#V#V#V#V#V#V#V#V#V#V#V#V#V#V#V#V#V#V#V#V#V#V#V#V#V#V#V#V#V#V#V#V.H#V.H#V#V#V#V.H.H#V#V#L#V#L.Zb3#E#L",
"#Vb3#V.H#V.H#L#V.H#V.H.H#V.H.H.H.H.H.H.H.H.H#X.H.H.H#V.H#L.H#V.H#V.H#V.H.H.H.B#V#V#V#V#V#V#V#V#V#V#V#V#V#V#V#V#V.B#V.B.H#V#V.B#V.B#V#V#V#V#V#V#V#Vaw#V#V#V.Baw.Baw#VbR.Haw#V#VawawbR#X.B.B.BbRbRaw.B.Haw.HbRbR.HbRaw#Vaw.H.Haw.H#V#V.H#V#V#V#V#V#V#V#V#V#V#V#V#V#V.B#V#V.B#V#V#V#V#V.B#V#V#V#V.B#V#V#V#V#V#V.B.B.B.Bapapapb3ap#Lb3#Lb3b3b3b3b3b3ap#xap#Lap#L#Lap#Lap#xap#L#xb3#L#Eb3b3b3b3b3b3#Lb3b3#Lb3b3b3b3#Lb3b3b3b3b3b3b3bCb3b3bCb3b3b3b3.Zb3b3b3.Zb3.Zb3.Z.HbC.H.Zb3#L#Lap#x#L#x#L#x#L#L.Z#L.Z.Z.H.Z.H.H.H#L.H#L#V#V.B#V.B#V#V#V.B#V.B#V.B#V.B#V.B#V.B#V.B#V.B#V.B#V.B#V.B#V#V#V#V#V#V#V#V#V#V#V#V#V#V#V#V#V#V#V#V#V#V#V#V#V.H#V#V#V.H#V#V#V#V.H#V#V#V.H.H.H.H.Haw.Haw#Vaw#V#Vaw#Va##Vap#V#V#L#V.H.H#V#L#L#L#L#XbR#L#E",
"#V#V#V#V#L#V.H#V.H#V.H#V.H#V.H.H#V.H.H#X.H.H.H.H.H.H#V#V.H#V#V#V#V.H#V.H#V#V.B.B#V#V#V#V#V#V#V#V#V.B.B.B.B#V.B#V#V#V#V.B.B#V#V#V#V#V.B.B.B.B#Vaw#V.B.BawbR.Hawaw.B.Bawawaw.HawbNbN.BbNbNbNbNbRbR.B.BbNbNbNaw.Baw#V.B.B.Baw#VbR.H.Haw#V.H#V.H#V#V#V#V#V#V#V#V#V#V#V#V#V#V#V#V#V#V#V#V#V#V#V#V#V#V#V#V#V.B#V#V.B.B#V#V.Hb3#V.Hb3#E#Lap#x#x#x#x#x#x#x#x#x#E#x.N#Lb3.Nb3b3b3.N#L#E#E#E.N#E.Za2.Z.NbC.NbCa2.Za2bCa2#d#d#d#db0#db0#dbCbCbCbCbCbC#HbCbCbC#z#d#d#db0.6b0bCbCbCbCbC.ZbCb3bCb3.Nb3b3#Eb3#Eb3#x#L.Nb3#L.N#L#L#L#L#L#L#L#L#V.B#V#V#V#V#Vaw#V#Vaw#V#Vaw#V#Vaw#V#Vaw#Vaw#V#Vaw#V#V#Vaw#V#V#V#Vaw#V#V#Vaw#V#V#V#V#V#V#V#V#V#V.H#V#V#V#V#V#L.H#V#V#L#V#V#Vaw.B#L.B.Ba##Va##V#V#V#L#V#Law#Vaw#Vaw#L#L#L#L#L#x#x#x#E#x#L.N#E#E",
"#V#V#L#V#V#V#V#V.H#V.H#V.H.H#V.H#V.H#V#V.H#V.H#V#V#V.H#V#V#V#V.H#V#V#V#V.H.H#V#V.H.H#X#X#X#X#X#X#X.H#X.H#X#X#X#X#X#X#X#X#X.ta4bRbC#X#r#r....#XbCaK.....t.t.ta4.t.t#X#ra4.t#r.t..#r.....taK.t#L#E..........#r#r.taK#XaK#X.Z#Ha##Law#V.H#Vaw#V#V.H#V#V#V#V#V#V#V#V#V#V#V#V#V#V#V#V#V#V#V#V#V#V#V#V#V#V#V#V#V#V.H.H#V#Lapapap#xapb3.Nb3bCb3bCb3a2b3aU#Ea5#J#JaIbHbPbP#u#6.FaQ#5a1a1a1#P#PaNaNa1a1a1a1a1#Pa1#P#Pa1#Paga1a1a1a1a1#Pag#P#P#P#P#P#P#P#P#P#P#P#P#P#Pag#P#P#P#P#P#P#P#PaNa1a1#3#3#4#q#Wbk.Ubg#u#J.vb6b6b6aUa5.N.NbC#z#HbC#zbRbCbR.HbRap#V.B.B.B.B.B.B.B.B#V.B.B.B.B.B.B.B#V#V#V#V#V#V#V#V#V#V#V#V#V#V#V#V#V#V#V.Hb3.Hb3b3b3b3b3.Hb3.H#Lb3.Hb3#V.Z#Lb3.H.H.H.Z.H#L.H#L#L#L#La#a#apapap#xap#EaP#E#H#z#zbC.tb0b0.N.Na5a5",
".B#V.B#V#V#V#V.H#V.H#V.H.H#V.H#V.H#V#V.H#V.H#V#V.H#V#V#V#V.H#V#V.H#V.H.H#V.Hapapb3b3#X#X#X.6.6.6.6.6.6.6a4a4#r#r.taK.t......#ra5a.a.#r...t.tbAbTbT.t#z....#r#r#r....#r#rb9b9b9#E#E#r.t.QbPaoaobP#E.N..........#r.............6.t.Z.H.H#V.H#V#V#Vaw#V#V#V#V#V.B#V#V.B#V#V#V#V#V#V#V#V#V#V#V#V#V#V#V#V#V#V#V#V#L#L#E#L.N.Z.N#d#d.Na2b6b6b6aL.KbMbMaM#5aM#C#C#a#P#P#P#P#P#Pa1a1a1a1a1aNaN#P#P#Pag#P#P#P#P#Pag#P#P#Paga1agaSaSaSaNaN#AaN#AaNaNaSaSa1aSa1agag#Pag#P#P#P#P#P#Pa1a1a1#P#Pa1#P#Pa1#Pa1a1a1aNa1aNa1#3#3#3#6#6.#.#.i.ibA.8.SbVbV#H.l#H#H#H.Z.H.H.Z.H.H.H.H#V.H#V.H#V.H.H#V#V#V#V#V#V#V#V#V#V#V#V#V#V#V#V#V#V#V#V#V#V#L#L.H#V#Vb3#Lb3#Vb3#Vb3#Vb3b3.H.Z#L#L#E#LaP.Z#E#H.ZbV.Z#H.Z.N#H.Z#z#H#Ea5#E.8b6.X.XaIbH.Tb8bPbg.7",
"#V#V#V#V#V#V#V#V#V#V#V#V#V#V#V#V#V.H#V#V#V#V#V#V.H#V.H.H.H#V.H.H#V.H#V.Hb3b3b3.N.6a4bObObObObO.............................tb0a5aUa5........ae.8bt.V#ib1#AbSbSbS#S#S#qacbd#nbHaAaA.R...v.L.vaIbU#r#r........#r......#r........#r#r#rbO#X.H.H#V.H.H#V#V#V#V#V.H.H.H#V#V#V#V#V.B#V#V#V#V#V.B.Ba##V#L.H.Z.N.N.N#0aU#n#nah#jah#h.yb1b1aNb1.1.g#3aQaQ#a#a#a#P#a#Pa1a1a1a1a1a1#P#P#P#P#P#P#P#P#Pag#aag#P#P#P#P#P#P#PaNa1a1#PaNaNaN#P#P#P#Pa1#Pa1a1a1#P#P#P#P#P#Pa1a1a1#P#P#P#P#P#P#P#P#P#P#P#P#P#P#Pag#Pa1a1aNaNb1#C#A#A#A#S#S#S#S#S#I#I.0.P#Fan#FaY#j#.bnbv.L.X.Aa5#H#X.H.H.H#V#V.B#V#V.H#V#V#V#V#V#V#V#V#V#V#V#V#V#V.H#V.H#V#V#V#V.B#V#V#V.B#V#V.B#V#V#V#L#L#L#L.Za2bV.NaXafaX#b#bb4b4bGbG#yaNaNag#Pa1aga1agag.w#A#3#3aQaQ.MaNaN",
"#V#V.H#V#V#V#V#V#V#V#V#V#V#V#V#V#V#V#V.H#V.H#V.H#V#V.H#V#V.H.H#V.H.H.Hb3.Hb3bCb3a4bObObO.........................tb0.t..........#rbO#ea2#QbV#1#1bi#4acbSahbUbUbU#Z#Zb1aNbababJaAaA.2.Gbi.NbVbtbt..........#r........#r..........bObO#r#XbC#L#L#V#V.H#V#V.H#V.H.H.H#V#V#V#L#V#V#V.HbR#Vawa#a#a##Law#H#H#E#E#EbUbcaJaH#7#7#7.yb.azbZ#3.I#3aOaN#a#a#Pa1#P#P#P#P#Pa1#Pa1#P#P#P#P#P#P#P#P#P#P#P#P#P#P#P#P#P#P#P#P#P#P#P#P#P#P#P#P#P#P#P#P#P#P#Pa1#P#P#P#Pa1#Pa1#P#P#P#P#P#P#P#P#Pag#P#P#P#P#PaNaS#P#P#P#P#Pag#P#P#P#P#P#P#A#A#AaS#A.y.yaBaB.J.J.J#F#FaY#jbUaybU#ob6aP#f.ZbR.Z#V#V#V#V.H.H.H.H#V.B.B.B.B.B.B.B.B.B#V#V#V#V#V#V.B#V.B#V#V#V#V#V#V#V#V#V#V#V#V.H#L.Z#E#E#J#Jb#b#b##san#Nb4b4b4b4#sb4#q#q#A#A#Aagag#P#P.w#aaS.w#aa1#P",
"#V.H#V#V#V#V#V#V#V.B.B#V.B#V#V#V#V#V#V#V.H.H.H#V.H.H.H.H.H.H.H.H.H.H#X#X#X.H#X#dbObObO..bO......................#raA#r....#r............bV#1.X.XbvbZ#5ac#6bgbnbgbe#6#6#6.8.8ae.....R.R......aAaA........#r..#r......#r........#r.......HbC#L#V.H#V#V#V#V#V#V.H.H.H#V#V#L#V#V#V#V.H.H#V#Va#.Ba#bR.Z#L#L.8bQ.8.7.x#j#j#I#I#IaC#h.I.IaS#AaS#P#P#P#P#P#P#P#P#P#P#P#P#P#Pa1#P#P#P#P#P#P#P#a#P#P#P#P#P#P#P#a#a#Pa1#Pa1#Pa1a1#P#P#Pa1a1#P#P#P#P#P#Pa1#P#P#P#P#P#P#P#P#P#P#P#P#P#P#P#P#P#P#P#Pag#Pag#P#P#PagaS#P#PagagaSagag#A#Aagagag#7bhaqaq.9.9.9#wbmbrbm#YbU#Y.Lbva5#xbR#HbR.H#V#V#V.H#V.H#V#V#V.BbNbNbNbNap.B.B#V#V#V#V#V#V#V#V#V#V.H.H#V.H#V.H.H#V.H.H#V.HbR.H#H#H.X.LbSbSbS.I.1bGbGatatatbGbGaNaNa1#a#a#P#P#P#P#P#P#P#P#P#P#P",
"#V#V.H#V#V#V#V#V#V#V#V#V#V#V#V#V#V#V#V#V#V.B#V#V#V#Vap#V#Vap#V.H#V.H.H.H.H#X#d#XbObO..bO..............................b0.G.....R...............R.R.........R...R.................R#r................#r#r#r..................#r..a4.t.tbC.H.Z.H.H.H.H.H.H.H#V.H.H.H#L#V#V.Hap#Vap#V.B#V#V#Vawaw.HbR#EaPb9bIb9#Y#YbraJ#F#F#FaD#IazaCaSaSaSag#P#P#P#P#a#P#P#P#P#P#P#P#P#P#P#P#P#P#P#P#a#a#P#P#a#a#P#P#P#P#P#P#P#PaNaS.O.Ob1#Cb1agagaOb1#PagagaN#A.W#qaM#Z#Z#P#P#P#P#P#P#P#P#P#a#Pag#Pagag#P#P#P.Qa9a9bVbVbV#ebVbVbV.NbV#e#e#e#e#e.2.2#Q#1.m.m.m.0.P.P.P.r#w.r#Yay#c#c#faPaPaPaw#V#V#V#V#V#V#V#V#V#V#V#V#V#V#V.H#V.H#V.H#V.H.H.H.H.H.H.H.H.H#V.B#Vap.B#L#L#LaPaP.A.A.L.L#2#2#2b2b2b4b4######.1.1ag#P#P#P#P#P#P#P#P#P#P#P#P#P#P#P",
"#V.H#V#V#V#V#V#V#V#V#V#V#V#V#V#V#V#V#V#V#V#V#V#V#L#V#V#V.H.H#V.H.H.H.H#X#X.H#X.6bObO......bO...............R....aA#raAbObO..........aA.G.R.R...R.....R.......R......................#r............#r..........................bOaK.6#X.Z.Z.H.H#XbR#X#V.H#V#V.H.H.H#V.H.H.H#V#L.B#V#L#Vaw#V.H#VbR.H#L#La5a5a..x.x.r.raJal.Jbh#FaC.yagaSagagagagag#Pa1#P#P#P#P#P#P#P#P#P#P#P#P#P#P#P#a#a#P#P#P#aa1#P#PaNaNaQaz#3.uaca9a9bh.bbhb1.IbhbhaEaCaEbZ.Ebn.x.Va9.Q#A#Aagag#P#P#P#P#P#P#P#P#P#P#P#PaOaE#o.8bQ#z#zbVbV.NbV.NbVbV#e#e.2.2.2#1#1.jaB#I#I#I.o.P.P.PajbqajaB.j.8#o#H#H#Ha#a#awawaw#Vaw#V#V.H.H.H#X.H#X.H#X.H#X.H#X.H.H#X.H#X#X#X.6#X#X#X.H.H.H#L#V#Law#H#H#H#faP#obD.5b5b5#Y.qadadb2aVb2#h#ha1ag#P#P#P#P#P#P#P#P#P#P#a#P#P#P",
"#V#V#V#V#V#V#V#V#V#V#V#V#V#V.H#V.H.H.H.H#X.H.H.H.H.H.H.H.H.H.H#X#X.6#X.6.6.6.6#XbObO..............................bO......#raA......................................aA#raA#r......#r............................................bCbCbC.Z.Z.H.HbR#X#X.H.H#V#V.H#V.H.H#V.H.H#L#V#V#V#V.H.Haw#Law#L#L#H#HbV#H#HbJbJ.9aBbrbrbr.0.0aD.y.y.y.yazaz#3#3aNaOaNa1a1#P#Pa1#Pa1#P#P#P#P#P#P#P#P#P#P#Pa1a1#P#P#P#A#AbZ.E.Eacacakak#AaS#Aagagbhbh#A#A.Iagag.h.hac.uacagag#P#P#P#P#P#P#Pa1ag#AaO#A#P#P.E.E.G.G.G#e#z#ebVbV#fbV#o.8aI.Tbs#..xakbyaCaC.I.I.Ianan.P.P.q.q.q#TbB#f.laK#z.fap#x#V#V#Vaw#Vaw.H.HbR#X#X#X#X#X#X#X.6#X#X#X.6.6.ta4#ra4a4a4.6.6#X#X#X.H.Z#XbR#zaK.f#f.AbB.L#M#M#MavavabaHananan#y#haNaN#P#P#P#P#P#P#P#P#P#P#P#P#P#P",
"#V#V#V#V#V#V#V#V#V#V#V#V.H#V.H#V.H#V.H.H.H.H.H.H.H.H#X.H#X.H#X.H.H#X#X#X#X#X#X.6bO.......................R.......R...Rb0.2bIbI#9bg.7#i#i#ub8.Q.D.Q#Z#5#P#P#P#a#PaIaI............................................................#r.t.t#X#d.H.H.H.Haw.H.H#V.H.H.H.H.H.H.H.H#V#V.H.H.H.HbR#Vawaw#XbRaK#XbV.NbV.XbJbbaiaRaBaRbrbmaJaJbh#FbhaDaDaS#A#P#P#P#PagaNb1a1aNaN#Pa1#P#P#P#P#P#P#P#P#Pa1a1aN#P#Pa1a1aSaSaSaSaSb1#Aagagagagag.I.I#AaSaSagaS#A#A.I.I.IaSaS#AaSaSa1agag#PaSa1aSaSaS#PagagaS#Ab1#AaSag#P#Pag#PagaSaSaSaSaSaSaSaCaC#7#7ananan.P.P.d#wbqaF#Db##.#c.X#zbR#zaPa##L#V#V.H.H.H.H.H.H#X#X#Xa4.6a4a4a4a4a4a4a4.6.6.6.6.6.6.6.6.6#X#d#X#dbC#z#H#z#z#z#f#1bJbJaRaRaRam.eadadb2b2b2aZaZbW#N#tb4b4acbe#t#4#Z#Z#Z#3#3#C#C",
"#V#V#V#V#V#V#V#V#V#V.H#V.H#V.H.H#V.H.H.H.H.H.H.H.H.H.H.H.H.H.H.H#XbRbR#X#X#X#X#X#rbO.......................R...R........bOa2a2b9.X.X.7.7#ubP#iao#i.O.OaQaQ#CaOaOaLaL#r#r........................................................#rbObO#X.t.Z.H#V#V.H#V.H#V#V.H.H.H#X#X.H.H.H.H#VbR.HbR.Haw.Haw#XbR#XaK.N#H.NaWbKbU.9.9.9.9alaJ.J.J#j.h#jac.0#Sbh.y.E.ybZ#3#ZbZaC#3bG#AaSaSagag#P#P#P#Pa1a1a1a1a1#P#PaNa1a1a1a1a1ag#A#AaSagaSagaSagagagagag#A#Aagag#Pag#PaSaSaSaSaSaSaSa1aSaN#AaSaSaSagagagaSaSaSaSaEb1#4.b#q.u#qbe#6#g#SaDaDaDaxax#j.h#7#7#7.oan.dabaJaJaJaxax.TbTaK#z#X.Z.H#V#V.H.H.H.H.H#X#X.6#X.6a4a4bObObObObObObO.6#d.6b0.6.6#d.6#d#dbC#dbC#XbCaK#z.G#z.G.GbJbJaFaFaFaaamadad.o.o.ob4#N#y#y##at###Nb4b4an#t#t#tb.###3#3",
"#V#V#V#V#V#V#V#V#V#V#V.H#V.H#V.H.H#V.H.H.H.H.H.H.H.H.H.H.H.H.H.H.H.H.H.Haw.HbRbR#r#r.....................R.R.......R...R..bObObO..bO..bO..................#rbObObO..#r#r#r#r#r.........................................................t.t.H.H.H#V.H#V.H#V#V.H#V.H.H.H.H.H.H#V.H.H.H.HbR.Haw.HbR#XaK#XbV.N#H#S#4b7.9.p.z.zaBaR#w.r.J.J.J.3bh.maD.y.ybZb1.I#Ab1aS#AaSaS#A#S#7#qbhac.O.baO#C#P#P#P#P#PaSaSaS#AaSaEaEbZ.EaD#SaD#SaD.h.h#j#j#jacbh.b.b.b.b#SaD#Z#ZaD#CaEaEbGaE#A#AaSaSaS.Eb.axax#3az#3#Pag.w#Aag#Paga1aS#P#PaS#AaS#I#Z.IaCagagag#7#NaJaJ#.b8b#auaubA.i.HbC#H.Z#Lb3#L#X#X#X#X#X#X.6.6.6.6a4a4a4a4a4a4a4a4.6a4a4a4#ra4#rbOa4a4.6.6.6bC#d.ZbC#H#z#HaAaAai#O.9avav#m#m.e.eb5b5b5ad#bad.rbW.mbW#NbWatatat#hatb.b.#y#3",
"#V#V#V#V#V#V#V#V#V#V.H#V.H.H#V.H#V.H#V.H.H#V.H.H.H.H.H.H.H.H.H.H#V#V#V#L.H#L#L.Z.t.t#r#r#r#r.............R...R.R.......R.R..........................................................#r..#r.............................................t.6.H.H#V.H#V#V.H#V#V.H#V#V.H.H.H.H#V.H.HbR.HbR.H.H#Vaw#XbRaK#X#f.Z.N#4.b.jbU.4bBbBaBaBbqbq#w#wajbmbr.r.r#U#U.raVa3bWbWbG.IaC#A#A#F#FahbSbS#jbK#3aE#Pag#PagagaSaS#AaSaN.IbGaE.I#3aC#3byaJ#pbabd#pbdbSbS#ZaDb1b1b1a1aS#AaNag#PagaSaS#AaNaSaSaS#Z.E#jau.b.b.bagag.waN#Pa1ag.waNagag#AaN#A#3az#AaSaS#A#A.3#FaJaJ#Y#2.xbKbKb9b9#H#H.Z.Z#L.H.H#X#X#X#X#X#X#X.6#X.6.6.6.6a4.6a4.6#d.6#d.6.6.6.6a4.6a4.6.6.6.6#X#XbCbC#HbC#H..#ra8bY#n#nav#m#maF.q.0b2aZbW#I.3anasasasasasas.PaVa3aV#RbL.FbS",
"#V#V#V#V#V#V#V#V#V#V.H#V.H#V.H#V.H.H.H#V.H.H.H#V.H.H.H.H#V#V.H#V#V#V#L#L#L#L.H#L.t.t#r..#r..#r...........R.R...........R.R...................R#r..............#r#r#r#r........#r..#r...................................................6.t.H.Z#V#L#V#V#V#V#V.H#V.H#V.H.H.H.H#V#V.H.H.Hawawaw.HbRbRbCaK.NaP.N.b.bbfbq#Y#Y#Y#w#wa3#j.0.0.0.J.JaJab.q.qaFaFaFadbmb2b2aZ#h#h#Nb4bG#y#yb1b1aEazagagag#A#AaSaSaSaNaS#3#ybGbG.M#h.M#y#yahaVaY.YaYbZb.#y#yb1#Ab1aSa1#AaN#Pag#P#Pa1a1ag#P#P#Pag#PaEaEazaQ#3#P#P#P#P#P#P#P#P#P#P#P#AaO#Aazazagag#A#A#A.3ac.JaY.x.xaFbKaubTbT.ZbC#H#X#X.Z.H#X#X#X#X#X#X#X#X#X#X.6#X.6.6.6#X.6#X.6#X#d#X.6#X.6.6.6.6.6.6.6#X.6#X#X.6#z.6#r#raTaT#8#8#8#K#Ka3#jaCaCaCaSaSaCaCanan.o.o.oan.ob2aVaZbL#RbS#s",
"#V.B#V#V#V#V#V#V#V#V#V#V#V#V.H#V.H#V#V.H.H#V.H.H#V#V#V#Vb3#V#V.H#V.H.H.H.H.H.H.H.6aK..#r.......G.2#Q#Q#QaAaq#Q.caeaeaeaqaA.R.R.......RaA.R.R...R...R.R.....R...RaqaA.R.R.R....aAaA.2.2..........bXbXaY#WaY#pba#Bay.Kayay...............t.6#L#L#L#L#V#V#V#V#V#V#V#V#V#V.H.H.H.H.H.H.H.Haw.H.HawaKaKbRaKa.aGa5aD#Ia3#j.J.Jblaa.5aa.5blblblblblblasan.oanan#N#N#Nanananan.oaY.JbGbG.I#AaS#haC#AaSaS#AaS.I.I#A.I#A#yaCatb.aC#y#yaNa1#h.Mb.b.##bG#y#g##b1bGb1aSaNa1#A#P#P#Pag#Pa1ag#A.waSag#P#P#P#6#6.u#P#Pa1#P#P#P#P#P#P#P#P#3#3.M#5##a1aS#A#A#A.3#Fakak.Vbra9bybw.i.i.f#H#HaPaPaK#X#L.Z.Hb3.H#Lb3.H.Z.H.6.6#X#Xb3b3b3bCb3#d#X#d.6#d.6.6.6.6#X.6#XbC#X.Z.Z#L.ZaP#r...8.8#ObXai#0#v#j.J.r.r#D#D#D#D.raFajajababasasaJbmbmac.3az.I",
"#V#V#V#V#V#V#V#V#V#V.H#V.H#V#V.H#V.H#V.H.H#V.H#V.H#V.H#V#V#Vb3#V#Vb3#V#V#V#V.HbR.t.t..........#e.lbb#mbbaiaib5#naSa1a1a1a1.F.F.Cae.CbX#J#R#i#b#9#baq.2...R.R.R..aq.2#Qa0#O#OaX.Y#j.MbZbSaZbS#YbUbS.h#A#AaNaYakaWaWb8b8b8aA#r..........b0b0.Z.Z#L#L#L#V#V#V#V#V#V#V.H#V#V#V#V#V#V#V#Vaw#V.Haw.HaKaK.taK#f#f#faWaWbmbm.Jal.JbqbqaR.q#waj#wajaj.d.dblblbl.o.o.m.mbWbW.mb4b4#j.Y.I.IbGaSaS#I#I.I.I.IaCaC#h#h#h#h#h#hatbWbWbWbW#IaSaSb.b.#I#g##b1bG###t#y#h#ybG.1bGb1b1.IaEb1aEag#PaSa1aS#P#P#P#Paxboau#P#P#Pag#P#P#Pa1a1a1a1.M.M#3b.#5aNaNaNb1aNanacaJaJ#.#.#..xbs.a.aaK.taKaPaP#LbRbRbRbRbR.H.Z.Z.HbC.H.6#X#X#X.Z#X.H.6.6.6#X.6#d.6.6#d.6.6.6#d.6#dbCb3bC.Z#E.Z..#r.8#O.Laf#l#v#v.9av.zai.zbBbB.5.5.9.q.9bqbqal.J.J.J.Jan#F.yaD",
"#L#V#V#V#V#V#V.H#V#V#V.H#V#V.H#V#V.H#V.H#V#V.H#V.H#V.H#Vb3#V#V#V#V#V#V#V#L#L.Z.H#XaK#r#r......#1.lbbbbbbaiaibJ.5aS#AaN#P#P#t#g.X.v.X#9#9#P#PbGbG#C#l#l.C.C#1#1#vbXaX#T#8bababJ#g#gag#PacacacbU.jaW#j#A#A#AaJaJaW#j#U#Ua9aAaA...........6b0.Z#La##V#V#V#V#V#V#V#V#V#V.H#V#V#V#V#V.H.H.H.Haw.Z#VaK#X.t.t#H#z#HayaF#..r.0.0.0.3.3.P.0alal.Jajbq.q.qajaj#wblasananan.3b4an.3aVaZbGbG#y#A#A#S#7aC#haCa6#h.m.mbWata6a6#Ib4#Nb4b4b4#A.I#S#SbW#S#Sb1b1#7#7#######y#y#yaCb1aE#Aaz.g.w#AaEaE.g#A#AagaSboauax.waS#P#Pa1#Pa1a1aNa1a1#C#3#C#3#3a1a1#AaN#A#F#F.Jbybq.x#Y.jbd.A.AaK.taKa#aPawaPbRaKbRbRaK.Z.H.Z.H.ZbR#X.H.Z#X.H#X.6.t.6.6a4.6.6a4a4.6.6.6#d#XbC#XbC.Z#H#H#H#r#r#faTaebba8bp.camam.4.4.4aBaBbqbqbqbqbqbqbq#w#wbmbmbm.VaJbK#j",
"#V#V#L#V#V#V#V#V#V#V#V#V.H#V.H#V.H#V#V#V#V#V#V#V#Vb3#V.H#V.H#V#V#Vb3#Vap#L#V#L#LaK#X..#r#r....#0aTai.pai.sbF#m.saSa1aSaNa1#s#6.v.v.vbcbdbZ.M#g#g#g#lba#e#Q.R.R...paibX.p#1bp#Q#WaWaSagaWaWaWbBbB.9.9a6a6a6#Y.q.J.Jbrbrbr.R.............t.6#L.Z#V.B#V#V#V#V#V#V#V#V.H.H.H.H.H.H.H#X#X#X#XbR.ZbR#XbR#z#XbV#fbVayay.x#D#.a9#..0axbh#F.mbhbh#A.IaS#AagagagaSaS#A#Ab1b1b1b1.1#A.1#Pa1#PaN#A.I.I#A.I#A.I.I#h#haC#h#haCaC#hat.mbW.m.I.I#S#S#S#7#SaCaz.m#SaCaCaC#7#7.r#D.r#..raDaDaS#AagagaSaSaSa1ag#3aE#3aNaNa1a1a1a1a1aSaSaSaSaN#AaN#A#A#AaSaCaCaC#FanaYaY#.#.#.bdbd#f.A.f#H.f.AaPaw.fawa#awawawawbRawaw.HbRaw#V#Law#Vaw.6aKa4.t#r#r#ra4#rb0.t#d#z.t#z#HaK#zaK#z#z.G.G#e#e#v#0#v#m#maRaR.dal.d.3.m.y.y#A.I#A#A#AaCaC#h#h#h.IaC.y.E",
"#V#V#V#V#L#V#V#V#V#V#V.H#V#V#V#V.H#V.H#V#V#V#V#V#V#V#V#V.H#V.Hb3#V#V#V#V#V#L#La##zbR#r#r#r....#1aTaiaiaibFbF.s#maSaSaSaSa1ax#sbta8a8bXbXb.#Z#qbebebYbY.2aA...R..ai#obYae.R.naA#RaY#Pag.h.h#j.paibJbJ.m#7.m.q.9#j.JaJaHaJ.R.n..........aK.taw#Vaw#V#V#V#V#V#V#V.H#V.H.H.H.Hb3.H.H#X#X.taK#XaK#X#z#zaK#z.l#H#Hbdbd#.#.akakakbhbh#Fbh#F#F#F.y.y#h#haC.yaC.I#AaSagagag#PaSa1aSa1a1aga1aNaS.I#A.I#A#A.I.IaCaCaCaCaCaC#ha6a6#S.m.m#A#AaS#AagaSagaSag#S.m#S.m#S#j#j.9#Yb7.jb7bh#7aCaCaSaSaSa1aS#P#P#P#P#Pa1aSaNaNaSa1aSaNaNb1b1.I.I.IaCaCaC.y.3bh#7aZanaY.J#D#D#Dbvbv#f#f.f.f.faPaw.fawawawawbRbRbRbRbRbRbRbR#Xawawaw.HawaK.t.t.t#ra4#r#r#r.t#r#z.t#zaK#z.faK#z.taK.t.G.l.lbbbbbb.4#8av.9alalal.3.3.yaC.I.I.I#A#A.I.I.I.IaCaSaSaEb1",
"#V#L#V#V#V#V#L#V#V#V.H#V#V.H.H.H#V.H#V#Vb3#V#V#V#V#V#V#V#Vb3#V.H.H.H.H#X.H.H#L#LaK#z..#r....aA.sa8bBbB#M#m.s#v#vaS#AaSagaSahbK#e#e#e.sa8azaz#S#S#S#v#1.2.2.R...RbYa8bF#0.R.R.Rb#.Da1a1be#Fac.z.z.4bB#N.m#NaRaR.P.PbLbLbL.n.R.R.........taKawaw#V.B.Baw#V#V#V.H#V.H.H.H#X#X.Z.Z.Z#XbRaK#X#z#H#zaK#z.G.t#z#e#e.j.j#Yay.V.Vbr#F#F.3ac.3.3.3.ya6aCaC.ya6#h#h#haCaC.I.I.IaCaC.Ib1aCbGbG#h.ybGaCaCaCaCaC#haCaC#h#hat#N.m.3.3.3.3ac.0.0.3bh#F#Fbh#F#F#jakbh#F#Fa6#I.I.I#I#I#IaCazbZbZ#y#y#y.M#y#ybGbGbGbG.1bGbGbG.1.1.1bGb1#y#y#h#h#h#h.y.m#I.3an#N.Pb2bLbL#2#2aFbJbd.S.SaPaPaPaPawawbRawawawawawaw.Bawawaw.HbRaw.H#V#V#V#X#X#X.t.6b0.ta4aAa4#r.t#z.taK#z.taK.t.t.t#z.t.l#e.2.2.2#m#maR.9#j#j.J.0.0.y.y#A#A#A.I.Iagag#A#AaS.Ib1b1b1",
"#L#V#L#V.HbR.HbR#X.H.H.H#V#V#V.H.H.H.Hb3.H.H.Hb3#X.H#X.H.H.H.H.H.H.H.H#X.H#X.Z#L.t.t..#r.......s.s#MbBbBbbbbbFbFaC.IaCag#Pax#F#e#Q#e.Sbb.Ib1####aD#0#0.G.2.R.R..#Obbbi#0aq.naq#b#ba1agb4#7b4.p.4.4.4a6a6a6#waj.o.oa3a3a3bjbj.R.R......aK.6aw#La#aw#Vawaw.H.H#X.H.H#X#X#X#X.6.6.6.t.6b0aKbC#zbC.G.t#r.G#e#e#ebU.j#2#YaJ.VaJ#F#F#7#7#S.m#Sa6a6.I.IaCaCaC#haC#haC#haC#h#h#h#h#h#h#h#h#haCaCaC.I.IaCaCaCaCaCaCaCaCatbWb4.3b4b4.3.h.0#F#F.3acbh#F#Fac.3#7#S#7.y#IaC#haCbZaz.I.IaS#AaN#AaNbG.1#3bG.1.1.1aNaNaNaNaNa1aNb1.1#y#ybGbGbGaC#h#I.m#N#N#N.3.3bLab#D#D#..T.T.Sa..f#H.faP.fawbRawawawawaw.Haw#X#X#X#XbR.H.H.HbRbR#XaK.6#X.t.6.6#ra4.t.t#z#XaK#z#z.f.f.f.f.f.t.t#e.l.2.2.2#v#v.9.q.0.0.0#7.m.y.yaCaCaC.I.I#A#A#A#A#A#A#Aa1a1",
".H.H.H.H.H#X#X#XbR#X.H.H.H.H.H.H.H#X.H#X.H#X#X.H#X#X#X#X.H.H#X.H.H.H#X.H#X.H.Z.Z.t.t..........bF.sbBbBbBbbbb#v#v.ybZbZagagbSbS.2.2#e.sa8azaz#S#S#S#Q#e.R.R.....RbYbY#1#1.Raq.n#9#9a1a1bSbS.0.p.z.z.za6a6a6.d.d.oananan.objbj...R.......t.tbRbR.HbR.H.H.H#V.H.H#X#X#X.6.6#d.6#d.6b0.6#z#d#z#z#za4.GaAaA.la2#eb7b7#D#DbLaJaY.0aZ.3.3.3#N.3#IbW#ha6aCaCaCaCaCaCaCbGaCbGbGaC#y#h#h#h#h#h#h.I.I.I.I.I#h#h#h#haC#h#ha6bW#Nan#7b4#NaZ#F#F#F#F.0#F.0axac#F.m#S.maCbZ.IaC.I.Ib1#A#AaSaSaSaSaSaNaN.1aNaNaNaNaNaNaN.1aNaNa1.1b1bGbG.IbG.I#haCbW.m#7#7.3#N#NaYaY.r.r.r.Tbd.A#faK.taK.faK.fbRbRbRaKaw.Haw.HbRaw.HbRbR.H.H.H.H#X.H#X#X.6.t.6.t.ta4.t.t.t.t.t.taK.taK.G.taK.G#z.l.l#Q#1#Q#m#K.q.9a3a3a3.3.3.ya6.I.I.I.I.I.I.IbG.IbG#y#yaN.1",
"#X#X#X#X.6#X.6#X#X.6#X.6#X#X#X#X#X.Hb3#X#X.6#X.6.6.6.6.6.6.6.6#X#X#X#X#X.H#X.Z.H.t.t..........#1.lbBbBbB#m#mbpbpaZaZaZ#AaSah#jaAaAaA#Q#eaD#Iac#7b4.R.R...R.R....ai#O#1#Qaqaqaq#2#bagagbr.Vbr#m#m#K#Ka6a6a6.q.q.P.0a6a6at#v#v.R.........t.t.Z.Z.Z#L#L.H.H.H.H#X#d#X.6b0a4aAa4aAaAbObO....bObObO....aA.R#Qa2#QaBbcaF#YbraJbr#j#j.0b2#F.o#F#N#7a6ataCaCaC#haC#h#hbG#ybG#ybG#y#ybGbGbG#Ab1#A#A.I.I.IaC.IaCaC#haCaCatatb4#N.3an.3#F#Facacacacacbh.3#SaDaCaCaC#A#A#A#AagaSaSagaSagaSagagagag#Pag#Pa1a1a1a1a1a1a1#P#PagaN#Ab1#3azazaz.E.ybh#Sacacac#F#FaWaYa9.Vbr.xaybDbDaGaGaGa..abQ.abQbQbQa.a.#xa.a.a.b6a.a.#E#E.NbV#E#E#f.t.t.t#r#r#r#r#r#r#r.t.t.t.t.t.t#r#r#r.G.G.G.2aqaqaq.c.camam.d.d.d.3an.m#I#haC#hbG#y#y#ybG#ybG#y#yb1b1",
"#X.H#X.6#X.6.6#X#X#X#X#X#X.6#X#X#Xb3b3#X#X#X#X#X#X.6#X.6#X.6#X.6.6#X#X#X#X#Xb3.Z.6.t.........R#Q#QbBbBbBai#mbp#QaY#jaYaSaSah#j.R.R.R#e.2aDaD#S#S#S.R.R.naA.R.R.R#Oai#e#e.R.R.Rb7bUaSaS#D#Dbn#m.s#KbFa6a6a6.q.q.o.oaC.IaCaiae.Raq........#r.t.taK#XaK#X#X#d#X.6.6.6bObObObO.RbOaAbO.RbO.R.R.R.R...R...R.2.2.2bcbc#Y#Y#U#U.r#j#jaZaZ#Fbean#SbW#h#ybGbGbG#h#h#y#ybGbGbGbGbG#y#y#y#y#y.I.IaSaS#A#A#A.I.I.IaCaC#h#h#hatbWbW.3b4.3#F#Fac#Fbhacacbhbh#I#I.yaC.yaCaCaCaC.I.I.I#A#A#A#A.I#Ab1.IaE#3#3aE#3aE#CaEaE#3#A#A#AaEaOazaEaEaEaEaEaEaEaE.I#A.I#Ab1b1b1aS#A.waSagaS.wag.wag#Pag#P#P#P#P#P#Pag#Pa1#P#P#P#P#P#P#Pag#Pag#P#P.g.gaMaMaMbo.ubw.kbPa9bPbxbx.i#c.aa..a#z#z.2.2.n.n.n.ca0.e.eajajajasa3ananatatat#h#y#h#h#ybG#y#ybG.1b1",
"bCbC#X.6.6.6.6#X#X#Xb3bC#X#X.6.6.6#X#X.6.6.6#X.6.6#X.6#X.6.6.6.6.6#X.6#d#d#db3.Z.6.t.......R.Raqaq#8#M#M#mbba0a0.rb#.ra1ag#jah.R.R.RaqaA#7bh#I###I.R.R.R........bXbX#0bF.2.2aq#nba#A#Abc.jaB#1bp#m#m#N#N#NaaaRbqbq#ja3#j#8#8bbbYbs.xbsbo.uaOaO#P#P#P#P#P#P#P#P#P#P#P#Pa1a1#P#P#Pa1#Pag#P#P#P#Pag#Pagag#Pag#P#Paga1agaSaSa1aSa1b1#A.Maz.M#5bZ.MbZb.bZbZ#y#y#y#y#h#yaC#y#yb1.Ib1.Ib1.IaC#A#A.I.I#A.I.I#h#hbWa6bW.m.mbW.m.3.3bh#F.3bhbhbh.3#Fbh#Fbh#Fbh#Fbh.3#F.0.0.Jbl.Jbl.Jas.JbL.JbLak.J#j#j#Fac#F#S#SaCazaSaSaSagagaSaSagaSagaSaS#A#A#A#A#A.E.Eaz.EazazazaEaEaE.g.g.g.g.E.EaDaMbhacbhac#4acbh#Facacax#F.h.h.h.h.h.h.hakak#j.h#j#F#F#S#7.E.y.E#AaEaSaSagagagagagaSaSaS#A#A.IbGatatanb4.3a3#jaJal.3.3.3atat#hataC#haCb..ybZ.M",
"bCbCbC.6.6a4a4#XbC#XbCb3.6#X.6.6.6.6.6a4.6.6.6.6.6#X.6.6.6#X.6#X.6#X.6#X#X#XbCbCa4a4..........aqaA#M#8bB#m#maqaqaFaF#baSa1#WaW...R...R.Rac#4aD#Zb..R.R...R...R..bXbX#0bi.R.R.R.Caebebe#0#v#0.R.R#KbF.m#I.m.r#D#F.0agagag#AaN#P#Pag#Pag#P#Pag#P#Pag#P#P#P#P#P#P#P#PaNaN#C.1#C.1#C.M.M.E.EaEaEaE#A#A#A#AaSaSaSaga1ag#P#P#P#P#P#P#P#P#P#P#Pag#P#P#PaSaSaNaga1#A#Ab.b.b.#IbW#h#y#yaC#y##at#h#haCaCaC.I.IaCaCbWbWbW.m#N#7.3#F.0.0.0.0.h.0ak#j.hakakbmaJbmalaJbmaJbmbmalalalal.dalab.JbLbLa3a3.3.3#h#hbZ.I#A#A#AagaSagaSaS.I#AaEaEaEaEaE.g.g.waEaO#AaE#A.waSagaSagagagagagagag.waS.waS#A.w#AaSaSaSaS#A#A#A#A#A#AaS#A#AaEazazaC.yaCaCaCaC#h#I#I#7bh#7acac.b.b.E#Z.Eaz#3b1b1#A#AaNaS#A#A#A#A.I#A#A.I#A#A.mbW#Natatatatatatat#7#g##aD",
"#Xb3#X.ta4.6.6bC#X#d#X#X#X.6#d#X#X.6#X.6#X.6#X#X.6.6a4.6.6.6.6#X#X#X#X.6.6.6.6.t.t#r..........aq.2#O.pbXaiai#Q#QbcbUbc#PagbSbS......aAaAbSbS#Z#ZaD...R.....R...R.X.vbtae.R.R.R.n.nbjaq#0#0#0b5#naWah#A#A#Aaga1agag#A#A#Aa1agaNaN#C#3#C.EaQbzbz#5aM#5aOaO#P#Pa1#aa1#P#P#Pa1aNb1aNaSaS#A#A.gazazaE.g#A#Ab1#Cb1#3#3#C#3#C#C#CaNaNag#P#3#3#3#3.M#P#Pa1a1a1b1b1a1a1agaSa1bG.I#h#h#h#haCaCaCaCaC#ha6#ha6#h#h#ha6bWa6.3.3.0.0#ja3#jakalbmaJbmbmbr#w#wbmbmbmaJbmalalalalasas.P.d.d#w#walalbL.0.0#N.m.3.3.3#7#7#I#IbZ.ybZ.IaEaS.wagagag#Pag#Pag.wag.w.waSag#P#P#P#P#Pag#Pag#PagagaSagaSagaSagag#A#A#A#AaEaz.I#A#AagagaSagagagagagag.b#7bhbUbUbU.T.kby#ibKbKaDaM#3az#3#A#AaEb1acacacaiaibB#T.y.y.y.I.IagagaC#3bG#yaCb.atbZ#hbZ#####g#g",
".6.6.6a4.t.6a4.6.6.6.6.6b3b3b3b3b3b3b3b3#Xb3b3#X#X#X.6.6a4a4a4.6.6.6.6#X#X.6.6.t.t.t..#r......aA.R#O#O#OaebYaqaq.v.L.v#P#P#i#i......aA#r.#.#axaxbo.........R.R..#p#Gbb.C.n.n.n#0bF#8#8b4b4b4.MbZ#3bZ#3#3#3#3#3aOaN#a#aa1#P#P#P#P#P#P#P#P#P#P#P#a#P#a#a#a#P#P#P#P#P#P#P#P#P#AaOaN.wa1#P#Pagagagag#P#P#P#Pag#PaN.1a1aN#P#P#P#P#Pa1aNa1a1a1#P#P#PagaN#AaN.R.Raeaeb4#qb4bW##bZ#hbW#IbWbWbW#h#h.m#I#I.mbW.3.3#F#F#F#F#F#j#j#jak#jaJaJ.Vbmbr.r.r.rbrbrbmalalaJ.J.J.JasbLaHabb2b2aZ.o.3an.3b4#N#S#S.3ac.3aCaz.I#AaSaSaSag#P#P#Pag#P#P#P#P#P#P#P#P#P#P#P#P#P#P#P#P#P#P#P#P#P#P#Pag#a#P#P#P#P#P#P#Pagagaz.g.gagagagagaS.waSagaS.x#9...R.......GaAaAaA#r......#r#r#r#r.....2#z#p#p.ia8a8#o#Tb1aE.I#A#AbhacbG.IbG#3#y#F#sb4b4b4#ybG#P#P",
".6.6.6.6.6.6.6a4a4a4bObO.6.6bCbCbC.6.6#d.6b3.6b3#d#X.6.6a4.6a4.6a4#X.6#X#d#Xa4a4.t.t...........RaAae#Oae.CbY.RaAbX.vbX#P#PbE.D.........R.TbU.U.k#i.............R.KbU#O#O#Q#Q#Qb7av#bbfb4b4#t#S#gb.b.#A#Ab1.waS#P#P#P#P#Pa1.wa1a1#P#P#P#P#P#P#P#P#P#P#P#P#P#P#P#P#P#P#Pa1a1#Pagagagagagaga1aSa1a1a1aga1#Cb1#C.X.XbcbH#qbe#qa1a1aNaN#3#3#3a1aN#P#P#P#P#P....#0aT#S#g#SbZb.#ybG#######j#j#haCbZ#h#hbZ#h#S#S#7#7#7#7#S#Fac.h.0.h#j#j#jakaYakaY#jaYa3ah#F#FaZb4.3b4b4b4.3b4b.###hb.bZ.y#hac#F#F#Fac#7bhazaCaSaSagagag#Pag#P#P#P#P#P#a#a#a#P#P#P#P#a#P#P#P#a#a#a.w.w#P#P#P#P#Pa1ag#P#P.waS.wagaSaN.waQazaQaSaS#PagaS.waSagagbA.X......aAaAaA.G.......RaA.G.2...R...R......#r..aAbVbi.L.LaD.baDagag#S#S#AaN#Aa1#PaZaZ#Ub#.D#W.Y.1.1",
"b0.6#d.6.6.6.6.6a4.6bObOa4.6#d#d#da4a4a4.6a4a4a4.6.6.6.6a4a4.6a4a4.6.6.6.6.6#ra4a4.t.............RaU#0aUbi#v.R.R#OaX#Oa1a1#u#u.....R...R#G#Gao#ibu...R...R......bU.KbX.v#vbi#v#B#B#baFahahahb.bZ#3#3aNaSa1a1agagagaSaS.waE#3#Pag#P#P#Pa1a1#P#P#P#P#Pa1a1#P#P#P#P#P#C#3#4acaOb1#A#P#PaSaSazaz#3aEbG#Z.E#2#9.x.....R..#p#G#p#Z#ZaNa1#P#P#P#P#PaN.1#3#3#3#0#0#T.v#g#Z#gb1b1agaSaSaSaS#####A#A#A#A#Aagag#A#A.I.Ib1#A#A.yaz.y.E.yaDaD#SaDaDaDaDaDb.az#y.Ib1b1aNaNaSa1ag#Paga1aSaNaS#AaN#Aah#jbSbS#S#S.baD.EaSaSaSaSaSaSag#P#P#P#P#P#P#P#P#a#P#P#P#P#P#P#P#P#P#PaSaS#P#PagaSa1aS#a#P#P#P#P#P#Pagaga1b1aEaEaS#Aag#Pagagag#P#P.X#laAaAaAaqaAaA.R......aA..aA#r.R#r..aA#raA.R...R..aA.R#e#ebu.V#i#A#AaD#Z#Pag#PaSaSahah#Ubm.DbebeaNaN",
"b0#db0a4#r.6b0.6b0.6bOa4bObOa4a4.6.6a4bObObObObObObObObObObObObO......bO#r..#r#r#r................aAaAaAaqaA...R.v.X.Xa1a1bk#i...R...R#raI.Kaoaoao........aAaAaA#p#p#0#0.R.n.R#Bb7ahah#t#7#tb4#q#4#4bZ.EbZaSaNa1#Pa1aga1#5#5#P#PaSa1aS#Z#Z#3b1aNa1a1a1a1#P#Pa1aSa1.V#ibS.h#A#A#AbhbhaWakbZ.E.y#A#A#SaD.x#2#bbYbY#e#e.RaA#r........aA.GaAbibVbi#E#pbA#pauau#Z#Z#Cb1#CaEaE.M.MaSaNaSaE.I#jaW#j#j#j#3.Iagag#AaS#Aagag#Pagag#P#P#P#P#P#Paga1aga1aga1#Pa1#Pa1aSa1a1aNa1a1a1#P#P#P#PaNaNaN.Vbu.V.V.uacacazbZ#AaSagagag#P#P#P#P#P#P#P#P#P#P#aaOaOaO#6.WaD#ZaD#S#SaD#SaSaSaSa1agbZaz#Z#Ibyak#RbS#Fb1b1#S#S#S#jbSbZbZ#AaS#A#4#7#p#p#O.8#O.Nbia2a2#z.2.G......aA......aA.R....aA.R.R.......R#Gbd#G#i#Rax#FbZbZbZaSaS#A#A######.r#Uafaf",
".6b0.t#r#r#r#ra4a4aAbObObObObObObObObObOa4bObO..............................#r...............R.......R..aAaA...R.KaL.K#P#P#W#W..........bUaIbEbEbE.........RaAaA.X.X.C.C.R.R.Rae#0aH.DaNaN#A#Pagaz#3.b#4.b#4.baD#ZbZ#3.M#4#4aSaS#Pag#P#ZaD#AaNag#PagbG#3#3#3#A#A#A#S#Sb1#Aacacbh.V.VakaW.h#j.h#SaDbZ.M#2bn#2bi#1.2.2#z.2.2.l#e.2.G..........aA.R......#Gbd#6.WaS.waSa1a1agagagag#Pbeac.TbU.jbU.jbSbS.b#S#6ax#6.u#6.u.W.W.u.u#6.u#6#6.W.W.W#4#4.O.O#Z#g#Z#Z#g#g#Z#6#s#6#6#6#i#i#WaW#Wbf.x.x#2b8#.b8.V.V.b#Sb1#Ab1agagaSaSaSaS#a#P#P#P#P#a#a#a#S#Z.EbZac.Wacaxaxb1bGaSaga1bG#3aD#Zby#i#Rac#qaSaSbSbSaxbc#nbSbSbGbGbGbSbSb8b8.F#6.F.O#4#q#q#W#W#W.7#9.7.7.X.v.Xb0#e..........#1#1#l.X#sax#sa1#PaNa1aSaSaS#AaSb4#7b5#nb5aqaqaAaA",
"..bObO....bO......bO..........bO....bO....bO.RbObO..................................#r#r#r#r#r....#raA#r.RbO..............b0.2a2.l#eba#pbEb8#z#z#z.....R........bXbX.2aAaq.RaAaf#l#2#b#U#U#Ubyby#4acaz#3#3#A#Aaga1ag#Pag#Ab1ag#Pag#Pag.waNag#P#P#P#P#Pa1a1a1a1a1a1aNaN#P#Pag#P#PaSaS#Ab1aSa1aS#P#P#P#Pb1#Cb1ag#P#Pag#Pag#Pa1a1a1a1a1a1a1a1a1#Paga1a1a1#P#P#Cb1#C#3aE#g#g#4#4ahahah#2bn#Ua9bJ#pbJ.G.2...............R..........#r..#r..aA...........................R...R.R.R..#Q#e#e#2bnb#bn#j#j#j.V.V.h#j.EaD.y#F#F#S#4#7#4#7axax#4#4#4bh#q.gaEaQazaOaO#A#P#P#P#P#P#P#PagagaNaSa1aSa1aga1aSa1aSaNaNaNb1a1a1aga1#Pag#Pa1aS#P#P#P#P#P#P#Pa1a1a1aN.waSaS#P#P#Paga1a1aSa1aSa1aNaNb1#A#3bG#3#7#7ah#jakaHaJ#..raBaBbJbJbJ#1#v#1#1",
"................................bO...R...................2b0.GaAaA.R.R.....RbVbV..#r........................aAaA.......R...RaAaAaAaAaLbx.b.b.G#e.G.........R....btbt.R.R#e#e#Qay#Bbgb#aL#YaLahaWax#6bh#4ac.uacbSaube#Fbe#F#s#4#7aN#AaN.g.gaNaO#P#P#Pa1a1a1a1#P#P#P#P#PaSaS#P#P#P#P#P#P#Pa1a1a1a1a1#P#Pa1#Pa1#Pa1#P#P#P#Pa1#P#P#P#Pa1a1a1.1.1#Z#5#4.O#4#Z#Z#g.O#Z#Z#Z#t#gbebe#WaY#W#R#R#2aF.p.p.p.2.2.R.R.R.R.R.R.R.......R.........................R.........R.R...R.R.R.R.R.R#v#0#0b#bn#Dbn#F#F#F#F.0#j.h.J.Jak#M#M#Y#Y#..r#.#2#2#j#jaxax#FaWbKauauac.uacbhbh.uac.bbh.b#4#Saxax.kaW#iby#i#Ubub8b8.r.x#9#U#UbubububSahbZ#3.IaE.IaSaSaSaSaSaSaS#AaNaE#C#3aE#3#3#3aDaD#t#4#7#q#7#S#tac#qb4aW#R#..r#U.V.VaF#2bJbJ#mbbbb#ea0btae",
"................................................aAaAaLaL#Z#Z#ZaE#3#5.E#Z.b#gbz.bbAbv#raA#r......................b0.2.G.....R........#o#JaQaQbTbd#G...........R.R#Ob6.R.R#Qbi#Q#Bbfbf.xbc#pbc.xbnauau.b.b#S.E#Z#ZaD#S#ZaDbe#qaxbeauboaubKbK#kbKbo#6.Fbo#6aubo.U#W#WaoaobEaobEb8a9b8b8.QbEbuaobu#i#ibKah#6#6.W#q#q#q#q#q#q#q.O#g#4.O#q#4#q.O.O#g.O#3#3#3#5#Z#q#q#t#g#t#ZaDbe#qaYaWaYaHak#naBaiaiaibp#v#v#v#0#v#0#Q#eaqaq.R...R...R...R...R...R.R.R...R.R.RaAaq.G.2aqaqaAaqaq.2.2#Oaeaib#b##2aFac.3acac.3.Vbm#.#D#D#Y.9acac.yb..yax#Fbyby#2#2.xa9braxaxax.u.u.kbKaWaWaubSbSbSbSaxbS#i#i#Rb8#UaybUbJ#lba#l#l#Y.K#2#2#2aH#ibu.V#i#ibyahbSahbS#j#W#WbSbSaxbS#4#4#4#qacbe#q#Fbeacacacac#4.0#F.haJ.Vbr.rbrbrbr.9.jbB#MbFbFbF.2.2#T#T",
"..............#r..#r#r#r#r#r#raA#raAa4.R...G.G.G#Obt#W#i#q#q#q.k.kac#qaSaSaSaLbx#za2#r#r#r#r......#ra4#r#r#r....b0b0b0bAbA#9#9.X#l.X.G.GaA#r...............RaAbObtbt.R..a2.2a2bc.Kb8#Uaxaxax.x.xa9#.ay.xay.x.xb8b8.V.D.V#RaYbSaZ.Wac.W#4#4#q#4.O#4.O#g.O.Wbebk#Wbk#ibk.k#ibgb8bsbf.7#2#9b##ub#bubuahah.O#t#4#5#Z#C#C.O.O.O.F.FbKbK#q#qbz.1#C.1#C.M.M.M#ibk#B#BbU.Kb7aH#RaZaZahaVah#w.r#8am#m#mbb#K#v#KbF#vbF#0bp#Q.2bjaAaqaq.R.n.R.R.n.R.n.R.R.naAaqaqaq.2.2.2.2bYbYbYbYbYaebb#l#Mba#D#.#Y#Yb4ac.3.0.0aJaJbrbr.VaD#I#A#AbZazaz#AaS#AaSag#PagaSaS.IaE#A#A.I.w#AaS#A#A#AaE.bbh.V.V.xaF.xayb7bJ#p#T#T#Tbc#pb8b8b7ayb7bfbf#U#U#Ub##U#R#R#i#Rb8b8#Ubcbc#G#n#RaW#Rbe#s#F#sbSaxbSbSbSbLakb#.r#Dbr.rakakbU#Y.j.p.p.zai#m.s#m.R.RbX#T",
"..............#r#r#r#r#r#raAa4aAa4#raA..........aAaAbA.ibU.TaIbYbYbV.l.Sbt.SaAaA..........#ra4.6b0a4.ta4bO..#ra4#C#C#CaN#a#i#i..............aA#r.............R...C.C.R..#Qbia2#n#G#2#9ax#6ax.x.x.x.xaBbdbd.x.xbf#Y.K#Yb7#Yb7#B#B#2#2#2a9a9#i#iahahah#q#q.F.F.D.D.D.Dbubu#R.D#U.DbfbfbX.vaXaX.v#B#Bbkbkbe#qbe#3#3.M.M.D#u#u.X.X.v.v#9.7#9#Z#5.1.1###Z##.F.F#s#sahahah.FaVanaZaVaYaV.9av#K#K.cbpbp.cbpbp#Kbp#K#va0a0.n.Raq.n.n.n.R.R.n.R.R.R.naAaqaq.2.2.2.2a0#Q#Q.C#0#0#0#0bY.C#T.L#T#2#2#Y#2#SbW#S.h#F.Vbr.h.0.h.y.y#A#A.I.I.IaSaSaSaNagaSagagagagagagagagagagagagagagag#A#Aboax.xbs.x.x.xaLbf.KaybUb8b8by#ibfbfaL#2bf.D.D#b#b#bbk#R#s#s#t#t#qbk#ib7b7#R#R#RbS#sax#FbSaZbSaZ#jaYaYbmaJab#Ubm#D#DaBaB.j.pbB.s#mbFbF#vaqaA#M#l",
"........................................aA......aAaA.X.X.TbUaIbYaGaAaA.......R............b0b0b6b6#x#x#Ea4a4btb6aI.KaIa2a2...........2b0........................bi.N...Rbi#0bi#G#n.Kay#W#j#Wbnbnay.xayay#YaWakaWaWaH.VbubL#R#U#U#Y#Y#Yb8.r#U#U#WahbK#t#qah.F#9bgbg#2.x#U#U#U#U#U#b#bbJba#8aX.vavbcaHaH#s#s#s#g#g.M.M.Wbe.WbkbK#ubEaobuao#g.O#Z#5#4#4#4.FaZ#Z##beanbeaY.YaHaH#Uad#Uar#8#K#m#Kbp#Kbpbp.c.cbp.c.cbja0.n.naqaqaqaqaq.naq.n.naqaqaqaq.2.2a0.2a0.2bjaq#v#vbibp#1#v#0aXaX.pbf#Y#2#2#IbZbZ#F#F.rbr#S#S#SaCaz#A#AaSaSaSagagaSaSagagagagagagagagagag.w#Aagagagag#Pag.w#AaObsbsbs#..#bnbs.xbg.xa9.Dbu#ibUbU.KaLbfbubub#b#b#.Y.Y#s#s#g#g#gahah#9bf#s.FaZ#q#t#qb4bSaZbSaYaY.VbmaHbmbrbm#w#Y.9#M#M#M.p.p.s.s#vbF#vaqaqbabv",
"..............#r#r#r#r#r..............aA..aAbOaA.....................................................R...R....bO..bObObO........bO..........bO............#raA#rb6bt.R...R.R.R#0.C.D.D#S#t#gayb7#U#UbSbSbSaW#RaHaJaZ#FaZbe.3#7#7#gaDaDaEbGaSaSagagagag#P#P#PaOaEaEboax.#.#bKbKbK.W#q#i.k.D.D.DaHbuaH.DahaVaV#g#g#5.M#4#4#4.M#5#4.ObubMbu.F#6#g.O#g#g#gbKah#6bebSbSbSaWaW#U#Ub7b7b7.z.zbp.cbp#K.c.z.z.e#8.zaX.zbb#m#mae#KbF#m#mae#m.s#v#v#v#Qbpbp#v#K#K#0.zbb.z.z#8#8#8am#lb5b5#M#M#M#0.sbfbfaN#A#A#Pag#q#q#S#7#S#F#Fac#FazbZaz#A#A#A#Aagagag#P#P#P#P#P#P#P#Pag#P#P#P#P#P#P#P#P#Pa9.QbEaLay.x#9ayayaybnbgaWaWbU.KbU#2#2bnbgb8b8b8auau#6#6#q#6be.UbkbfaL#ibk#i#6#sbSbSaY#RaWaH.Jb#.r#Y.q#YaF.qaR.9#Mam#M.zai.zbbbFbFbF#Q#Q#p#p",
"..#r............................................aA#r.........................................................................RbO.RbO........#r#r#r..#r......#r..a5a5.R.........2.2.D.DaNaNaN#s#sbSbSaWaWaW#Ubr#jaWaDbWaDaC#h.I.I.IbGbGaN#AaSaSaga1agaSagagag#Pag#P.w.w.Q.Q.k.U.k.uax.k#Wbububu.Dbub##ubkbkbk#t#g#t#t#q#q#q#Z#Zbe#6.D.Dao.W#6#Z#Z.F.F.F.k.kbSau#F#6#FbK#j.jbU.L#M#Taiai.cbpbp.cbpar.z.eambb.z.z#K#m#m#m#0bF#0#m.sbFbF#0#vbF#v#vbFbF#mbY#mbb.z.zaXar.z.4.e#8b5b5af#l#8#vbi#l#M#t#t#tbZ#yaD##b.b.b.#S#S#S#SaE.IaEagag#Pag#P#P#P#P#P#P#P#P#P#P#P#P#Pagag#Pag#Pag#P#P#i#i#i.x#9.x#9bU.K.K#2bf#ibu.Kb7.Kb#bgbgbsbEa9bEax#6.W#q#6#6.W.k.k#9#9#i#i#ibeax#WaW#U.V#UakaJ.r.r#Y#Y#Y.9.qaBaBbBbBbB.4.zbb.z#K.s#m#e#e#Mbv",
"................................................a4aA.R...........................................R..................................aA#r.G#r..........#r#r#r....#z#zaA#r.R.R.R#ea2#p#p.D#UbubSax#Z.E#A#A#Aag#PagaSb1.I.IbZbZbZbZbG#3#3#Ab1aSa1aSa1aS#Pag#P#Pag#Pag#Pagau#kbK.kbKauaub8b8bg#9bgbk.YaHbk.Yahah#t#t#t#t#g#g#g.M.M#g#Z#q#qbe#WbkaLaLbgbsbgb1b1agag#A#A#A#FaxaBaBbB.pbBbbbb#v#K#K#K#K.z.4#M#8#m#K#K#Qbp#v#v#v#v#v#Q.c#v#vbFbFbFbY#mbYae.s#m.sbF#0#v#var.4arar.eama7am.e.e#0#K#KaeaFaF#b.Y.Ybebe###Z#Z.MbZ#5bZ.EbZ.E.E.EaM#Z#ZaM#Z#3.gb1#CaSaSaNagaSa1a1a1aSa1aSa1aSaS#WaW#Wbubu#9#9ba#l#l.K.K#i#R.K.K.K#Baybgb8b8#ub8auau#6au#i#i#ibE#u#ub8bgbg#2bKahb8b8bf#Ybf.r.r.r.r#Y.q.q#Y.q.9aRbBbBbBbbbb#vbp#Q#Q#Qaqaq#.b8",
"#r.R#r..................aA#rb0b0b0a2a2.vbI#u#u#u.O.O.W#6.Xb9.XbO.................................................R...R...R..aAb0.Gb0aU#E.N#E.Gb0.G#r..........#r.t.G..........a2a2baba#9.x#9a9bE#q#q#3#3#3aSaSaSaS#A#A#AaS#AaN#Ab1b1b1#AaNaSaSaNaSaSag#P#P#Pag#P#Pag#PauaW.u.u.u.E#5#4#4#g#t#g###ZaVaV.Y.Y.Y#t#q.M.MaNa1aN#Pa1#Pa1.1aN.1.F.F.K.K#U.D#Ub1b1#3aC#S#7#7brbr.jaB#M#M#M#K#mbp#Q#m#m#mbBbB#M#M#m#mbbbp#vbp#vbpbpbpbpbpbpbp#v#v#v#vbpbF#v#v#0#v.sbFbF.s.z.z.zarar#8.ear.4aX#vbp#0#0b7b7b7#RbL#g#S####b..MbZ.M#3#3#3#3#3#3.E.EaMaDaM#4#4#4#4#4#4#4#q#4#q#q#qbebeax#s.F.F.k.k.k.FbS#6.F#W#W#W#6#s.O#tbg#9bgaLbf#ubgbEbEbE#4#4#CaE#3aQ#3#5#3.O.O#i#i.k#WaW#.b##Y#Yaybrb8.r.r#Y#Y#Y.q#Y.j.9.z.z.zbFbF#K#m#Q#Q#Qbp#1ac#q",
"..............................aA..b0b0b0b0.Xb9.XbK#kaubob9.X.X...............................................R.................R....aA.GaAaA.....................t.G..........#1bi#G#Gbgb8bg#i#ibSaubSauauax#6ac#6ac#q#qaDaD#t#S#Z#Z#Z.M.M.M#3.MbZ.M#CaEaSaSaSaSaS#Pagauaubz#q#qb1b1b1b1b1.1.1#3bGahahah.Ybk#s.F#Z##aNaNaNa1a1a1a1bG.1bG#s.F#Ub8#Ub8b8acac#jaW.V.V.V#.#.#Ybq.5aB.5#m#m#m#m#Mam#MaRaRamam.4.4.4#m#m#v#K#v#KbF#K#m#m#K#v#K#v#vbFbF.sa8bbbbaiai.p.p.zar.zamamaRava7aab5#mae#K#Kbcav#n#R#Ran#q#t#S#t#g###Zb.#5b..M#5bZ#5.E#Z#Z#Z#g#g#S#S#qb4#q#qbeaxbSah#Wah#ibu.Db8#ub#bg.Fah#5#Z#3#3#3.1.1#5#5#9#9#9#9aL.7.7bgbg.##4#qa1a1a1#P#P#P#P#C#C.k.k.U.V#ibgbnbf.xbfa9brbrbrbnbq#D.xbq.9aR.p.p.p#vbF.4.4bp#Qbp#1#vaEaE",
"................................................bObObObO..bO....................#r#r.............................................................................GaA...R.R.R.R.2.2#Ga7bu.Dbu#W#R#WaWaxax#6#q#4#q#q#q#q#q#q#q#qbebebeac#q#q#6bebKbKah.k#W#i#W.D.Qbubsbs#9bnb8b8b8bE#ubE.D#u#U.D.D.DbuaHbkaHbk#t#t#q#q#t#t#t#t#tbe#s.F.F.Fah.F#W.YbSahbSaWaW.V.Vbr.Vbr.r#D.9.jbJ#M.5aT#vbF#KaBaBaRaJaJ#D.rbBambB.4.4.e.e.z.4.z.4.z.z.z.zai.z.z.z.z.zbBbB#8bJbJ#naB.9#Y.9aJaJ.r.raBbUavar.z#K#ma7bJb5.rb##FaZac#q.3#7#q#7#t#t#S#taD#g#g#gbe#qbe#qb4#q#t#qb4#q#s#sahah#R#W#Rbubu#u.Dbf#9#9.K.K.K.K.K.K.K.KaL.KaL.KaL.KaLaL#BaLbn#9bn#ua9bubu.k#i.k.k#Wby#ibEbEa9bgbs.x.x.x#2#2#Ua9bybybr.V.V.r#.#D#DaBaBaB.4.4bB#M#v#v#v.2.2#Y.x",
"......................................bO........#r.R#r.R..........aA...........................................R................................................aAaA.....R.R.Ra2bia7#G.D.D.Dbk#R#W#W#6.F.F#q#q#qbe#4#q#q#g#g#g#tax.F.F#6be.FbS#WaW#W#i#i#i#i.Qbu.D#ub8b8b8b8#ub8.D.Dbu.Dbu.D.Dbububkbkahah.Y#s#t#s#q#t#t#t#g#t#q#qbebebe#qbe#saxahahahaWaW.V.VbyaJby#D#DaBaB.pbBaibpbp.n.Ram#M#M.0anaCaC.m.m.m.o.0.0.0a3a3.0.J.P.J#j.J.J.J#jak.0.h#F#F#Fbh#7#7#S.Iaz.I.I.Iakak#M#M#Ma8bbbYbF#MbJ#Mb##.#jbS#Fbeac#q#7#4b4#t#g#t#g###t#tbebebe#t#t#t#t#qb4#q#s#s.Fahah#Wah#ibub8#ububububgbgaLaL.KaL.K.7aLaL.7aL.7.7.7#9bE#ubu.DbEbu.QbE.Qao#i#i.k.k.U.k#i#i#i.Q#ib8a9b8#.#..V.V#iakbyakbyby.V.Vbrbq#Y.qaBaB.zaibFbFbF.R.R#O.8",
"......................................aA#raAaAaA#rbO..............aA#r#r#r#r.........................................................................................R.R.C.C.CaXaX#G#Gbfbfbfbubuahah.Fbe#6#6#6#q#q.M#Z.M###Zbebe.F.F.Fbe#6.F.F#Rbk#i.D#u.D#u.D.DbE.D.Db##u#9#b#9b#bg.Dbububu#i.Dbu.Y#R.F#s#s#s#s#q#s#t#t#q#t#qbebe.F.F.FahbKbk#W#ub8b8#u#U.D.V#U#U#.#Y#Y.L#Mbb.sbb#v#1#Qa0#m#m#maBaBbrbm#j#j#j.h.0#F#Fbh#7bhacacbhacacacacacacbhac#7#4bh#4#7.bbh.b#Sbhaxax.V.V#.bnbnaBaB.sbbaiaiai#YayaWaWbSbSbS#qac#q#q#qb4#q#t#t#t#tb4#tb4bebebe#qbebebe#s.F.F.F#W#W#Wbu#i#u.D#9#9#9aLbf.K.KaLaL.KaL.K.K.K.K.K.K.K.K.7.7#9#9#9#ubg#u#ububEbEbk#i#i#i.Q#i.Qb8#.a9a9#.a9#.#.#.#.a9.V.V.Vby.Vbrbrbq#2bqaBaBbB.4#Q#Qbpaq.n#o.p",
"......................................b6#JbTbTbT#Jb6aA#r......aA............#r..#r#r........................aA.R...........R........................................#0bi.Kbc.K#b#uaH.DbkbkbkbKahbKbK.F.F.F#6.F#q#q#5b.#5#5#Z#6.F#qbe#qbe#q#6#s#W#W#W.Dbu#u.D.D#u.D.D.D#9#bbfbfbf#9#b.D#U#iaHbuaH.D#i#Rahahahah.Y.F.F#sbe#s#qbebebe.F.F.FbKah#W#W#i#i#i#i#i.Db8#2.x#2bUbUbJbJbBbB#TbB.p.p#TbJba#p#8#T#1#e.R...R...R.RaAaqaAaA.GaqaA.GaA.2.G.2.G.2.GaA.Gaq.GaA.GaAaA..aAaTaT.x#Ybybyby#2#2.jay#Y.x#YbnbnaWaWbSbSbSaxaxbe#6#qbe#q#t#q#t#t#t#q#t#q#4#t.O#t#t.O#q#4ahah#i#ibkbu.Dbuaobgbgbg#9.7aL.7aL.7.7.7.7.7.7.7.7.7.7#9#9#9#u#u#ubububMbu#i#ibM#i#i#iao.Qa9.Qbsbs.#a9a9a9a9a9a9.Qbr.Vbybybrbr#.#.ay#Y#Y#MbB.z.zbp#Q#Q.2#Q.L.L",
"..........................................b0b0b0bOaA......................aA..............#r#r..aA.....RaAaA.G.G...R...R..........................#r............aAaAb6#Obkbkbk#q#4#Z#Z###5###g#g.O.O#qbz.W#6#6.W.W#Z#5#Z#g#Z#6#6be.W#6#6be.F.FbkbK.Y#i#ibu.D.D.D.Db##u#9bf#9bfbf#b#9.D#U.DbubububuaH#i.Y.Ybk.F.F#s#s#s#6be.F.F.F.Fbkbk#WbuaobububE.DbE.DbEb8b8#2.x#2b#bn#U#.#D#2#D#2#2#2#2#2.x#2.L.vaAaA...R...R..aAaA..aA.R...............................R...R.......2.2bcbU.V.V.V#.#D.rb#akaWakbSbSaDaD.O#Z.O#Z.O.b.b#q#q#q#6#qbebe#6#s#s#6#s#6#6bebebe.F#6bKbKbu#iaoaoaobuaobEbE#ubg#9.7aLaLaL.KaLaL.KaLaLaL.7#9bg#9#9.D#u#ububububuaobu#i#ibM#i#i.Q.Q.Q#.bsa9a9.Q.Q.Q.V.Qa9a9#.#.#.bsbs#Y#YbJbJbJ.zai#m.sbbbbbb.zaibXbX",
"..........b0aAb0aAb0.R#r...........RbObAbAaLaLaL#J#J#raA#z#z#z.N#EaAaA..............#Gbdbdac#qaWaWbnbnbn.x.xaf.XaAaA.R...R..........................................b0aAbP.7#9#5.MaNa1a1a1a1#aa1a1#P#P#P#P#P#P#a#a#a#aa1#Pa1aNaNaNaNaN.M.M#q#q.F.F.Fbkbk.D.Dbfbf#9.K.K#B#B#B#B#B#B#B#B#Bbf#9bfb#b##u.D.D.D.Dbkbk.F.F.F.F.F.WbeaM#gaQaQ#5#C#C#aa1#P#P#Pa1a1aNaNa1aNa1#P#P#Ab1#qbeac#W#W.K.K#Ob6#O...R....bO.R.......................................................R.......R..#vbi#0#b#9beac#t#4#taSaSa1aga1aga1#P#P#P#P#P#P#P#P#Pa1a1a1a1aN#C#C#ZaM#4#4bz#q.W.F.F#WbKbkbEbE#u#u#9bg#9.7.7aLaLaL.7aLaLaL.K.KaL.KaLbfaL#9#9#9b##u#u.Dao.DbEbEbE#ub8.#b8.x.x#9bsbsbsbs#.#.#..Q.V.Vbra9#.a9.ra9.V.VbmaJaJbrbr#Dbq#Y.q#Yay.jba#p",
"........#r..#r.........R...R..........#p#GbkbK#W#JbXaAaAa2.Na2btbtbO#rbO..bO........bX#obXaWaW#Y#YaBaBaB.j.9bBbB.R.R.R.R...R......................#r#r................bOaAb0.6.7aLaQ#5#P#P#P#P#P#P#P#P#P#P#P#P#P#P#P#P#P#P#P#P#P#P#P#Pa1#P#aa1#P#a#P#P#Pa1a1#3.M.M#q#q.WbebK.FbK#W#WbKah.F.F.F.F#6.O.O#3#C#3#aaN#aa1a1#Pa1a1a1a1#P#P#P#P#P#Pa1#Pa1a1a1a1aNaNaNa1a1a1ag#Pa1#P.b.O.Oba#pa2a2.R.R.R...R...........................................................................R...R.v#Tax.F#Ab1#AaNaN#P#P#aaN.w#a#a#P#P#P#P#P#Pa1#P#P#P#P#P#Pa1#P#P#Pa1#Pa1#a#C#CaMaM#Z#6#6#WbKao#i#i#u#ubf#9.K.K.K#B.KbfaLbfbfbf#Bbf#9#9#u#u#ubk.Dbkbkbkbkbk#Wahbk#W#i#i#i#W#WahahbSbSbS#F#F#4bh#S#S#S#SaD#I#I#7ac.3#ja3.r.r#Y#Y#Y#YbU#l.L",
"......aAaA.Gb0.GaAaAaAaAaAaAaqaAaq.R.R#0#0.K.K.Ka2#e....b0aAb0#EaU..................bX.vbXaWbybqbqbqbqbq.qbq#M#M.n.n.n.R.R.R.R....................bO................#ra4......bObO.v.X#g.O#g#C#CaNa1#P#P#P#P#P#Pa1#aa1#aa1a1#P#P#P#P#P#P#P#P#P#a#Pa1a1#P#P#P#P#P#P#aa1#P#P#aaOaN#CaQ#C#CaNaNaNa1a1a1aNa1aNaNa1#P#P#P#P#P#P#P#P#P#P#P#P#P#P#P#P#P#P#P#P#P#P#P#P#P#P#PaNaN#4#qaLaLaLaAaA.R.R...R...R....................#r#r#r........................................................#e#e#pba#q#6#6#Pag#P#P#Pag#P#P#P#P#P#a#Pa1a1#P#P#Pa1#aa1#P#P#P#P#P#P#P#P#P#P#P#Pa1#P#C#aaQ#3#g.O.O#6be#W#W.D.D.D#u.D.D.DaH#iaH#ibkahbk#s#s#s#g#g.M#3.1aNaNa1a1a1a1aNaNaN.1.1b1aN#AaNaNaNaN#A#Ab1b1b1#ybZ#Zb.#j.h#j#j#jaYaWb#b#b##p#pbYbY",
"a1aga1#AaO.M.M.F#6#6#9#9.v.v#1#Qbi.R..#0aT#p#pba#1#1.R.R.RaA.Rbia2.............R....bXbXbXbybybrbrac#F#F#I.mbh#7.p.paXaAaq...R................................................b6b6#J#Jb0b0b0.R......aAaAaA.Ca5#GbH#W.U#WaQaQ#P#P#a#a#aa1#a#P#P#P#P#P#P#P#P#P#P#P#Pa1#a#P#P#P#P#P#P#P#Pa1a1a1a1aNa1a1a1a1#Pa1#Pa1#P#P#P#P#P#P#P#P#P#P#Pa1#5#5.W#6bHbHbHa5a5...................G.Gb0.R.RaA.R.R.R.R...R..............bO..bObObO........................................bO.........R...R...........R.R.2#e#p#p.Q#i.Q#5#5#aa1#P#P#P#P#P#P#P#P#P#P#P#P#P#P#P#P#P#P#P#P#P#P#P#P#P#P#P#P#P#P#P#P#Pa1a1a1a1a1aNaNaNaNa1aNaNa1a1a1a1#Pa1a1#Pa1#Pa1#P#Pa1#Pa1aNaN#3#3#3#ZaD#5b..EbZ.E#Z#ZbZ.MaEaEaE#3.IbZ.EaD##aD#jaW#nbc#1#0bi.RaA.R..",
"ag#Paga1aSagaga1a1aSaNaNaNaN.1aN.1bZ.M.x.xbUbUbU.Gaq..........a2bi...R..............#O#O#Ob8brbn#D.h.h.h.y.yaCaCavbU.j#Q#e.R............bO..............bObO#rbO..............bi.N#lbA.K.K.KbX.vbi#0aAaAaA........bO.RbO.2b0.N.N#GbT#G.7.7bM.U#6.W#6.O.O#ZaM#3#3#3.1#C.M.M#Z#Z#5#Z#g#5#5#Z#Z#g#4.O#q.O.O#g.O#5#5.O.O#k#W#k.7.7.X.XaUaU#Eb0b0.....................R..aA.G.2#ebibibi#e#z..................aA#r#r#r#r..................bO..bO..................bObO.....................R.RaAaA.R.R.R........#z.2.G#o#o.#b8#4#4#4#C#3a1aN#Pa1#PaNaN#P#P#P#P#P#P#P#P#P#P#P#P#P#P#P#P#P#P#P#P#P#P#P#P#P#P#P#P#P#P#P#P#P#P#P#P#P#P#P#P#P#Pa1a1a1a1a1aN#a#3#3#Z#5#Z.M#5aE#CaEaOb1aEaEaEaEaE#AaE#3.E#4#4b8b8b8af.X#e#Q...........G.G",
"#A#A#AbZaz.EbZ#ZbZ#Z#S#SaD###4#7#4aWaW#Faxb1#Ab1ag#P.I#3b8b#b#.v.v.R.R.....R........#ebVbVbn#.bJbJ.s#m.saBbJ#Y#Y.SaebYaAaA..................................#r.................2b0.C.C#G#G#Gb8b8bu#i.k#W#R#i#i.Dbub8bE#ubgbg.7aL#pbT#Gb6#Jbibia2a2a2b0b0aAaAbO..bO.....RbO.R...R..bO.R.....RbO.R.Rbibi#J#JaXbK#W.O#4#C#C#C#P#P#P#P#P#P#P#Pa1a1a1ag#Pag#P#PaSa1aSa1aSa1aSa1a1ag#Paga1a1#P#PaN#CaO.W.WaLaLaUaUaU..aA............................bO..bObObObObO..........#r#r#r#r..........aA.G#0aT.sbX#T.jbU.jbdbU#T.vaTaT.G.2.G.R.R.R.Raq.2.2#raA#z#ebtbtbt.X.X.TaI.7.7.7b8.#.QbEaoaobw#ibw.U.k.U#W.k#kbKauau.u#6.u.Wbz#5aQ.g.g.gaNaO.w.w#A.waOaOaO#3.gaM.EaM.Q.V.##..T.T.T#T#oaTaT.G.2.G#raA.......R.......R...R.R.R....aAb0",
"#A#A#A.gaz.I#AaSaSaSaNaSaN#AbZ.EbZ#jah.Fax.V.VbybSbS#AaNaDaDaDbfbf...R...R..........#z.G#zb8.#bJbJ.2.2#e.sa8#o.paA.Gaq.....R......................#r................#raA...R..bVbV#O.8bXbX.vba#payaLb8b8b8bEbu.k.k.FbS#6au.F#i.U#W.U#ibE#u#9.7aLaLaLbH.KbAba.X.X.X.v.X#JaXbtbt.C.C#0#O#O#B.KaL#s.F#3bGa1a1a1a1a1#P#P#P#P#P#P#P#Pa1a1a1a1#3b1#ZbZ#g#g#g#S#g#F#sbe#Fbeb4#qaDaD#Ab1#Aa1a1#P#Pa1a1a1a1a1#Pa1#P#P#P.1#C.k#i.X.X.X.R.R..................bO.RbO...............................R.2#eaT.saTai.Sayayb8b8b8a9b8ay#Bba#p#p#ObX#0#0#0bi#0#e#e.2.GaAaA#r.R#raAaA#e#z.2bV.lbVbVbV#fbV#f#faT#faG.AaGaGaGa..S.a.8.a#o.a.a.8#o#J#obDbI#o#o.a#o#o#o.SaGbY#faT#f.GaAaA#r.R...R.......R...R...R.RaAaA#e#e#eaAaA.RaA...........GaA",
"agaSag#AaSagaS#A#A#Ab1b1b1aE#Z#Z#Z.E#Z#S.baxaxax.V.V#3az#AaN#Aah#WaebY..............#z#z.G.xaLbd#p#raA.R#e#e#e.2...R......................................#r#r#r........aA.RaAbYaU#lbA#Gbd#Gba#p.K.K#2#9.xb8b8aobubw#iao#i.Q.k#i#W#WbK.Fau#i#i#u#u#uaL#9.7#9aLaL#B.KbcaLaLbubu#i#q#qaNaN#P#Pa1a1aNa1a1a1a1a1b1b1.M#yaD#Z###t#7#t#7#qb4#qacacbeacaZ#FaZ#WaY#iaJ.V#U.V#U.VaZbSaYaYaYah#j#i#WbK.FbK#4#4#Z#Z.1#Cb1aga1aSaNaSa1aS#Z#ZbU.Kbt.8bt.2aA.R...R.R.RaAaAbO..bObO......#r.G.......R..aAaA.sbYaTbJbvb#bn.V.V.V#i.VbE#U.D#U#U#9b#bUb7bUaBbc#l#l#TbXai.8ai#1aT.2.2.G.2.G.G.2...RaAaAaAaAaAaA.GaA.GaA.GaA.taA#r#r#r#r...G.G.G.G.G#e#z.G#z.GaA.GaAaAaAaA.R.R.RaAaA...R.R.R.R.R.R.R.R.2#e#ebFbY#1#0#0aU#0.lbV.2b0............#r",
"azazaz.h.h.x#2a8btbb...R.....R...RaA..bUbU#Z.E#Z#A#A.uac#WaW#W#S#gayb7.R............#r.G.t.i.ibD.L#r.R#raAaA..................................................................bV#eaIbU.x.x.7b8b8b8b8.xaL.x.K.TbU.KbUaIbU.TbH.KaI#9.7#9aLaL.K.K.KaL.K#Gba#G#n#W#W#W#C#3a1#PbG#CbG#q#q#WaY#i#R#RahbS#t#taDb.#Z#y#3bGbG#Pagagb1b1azbZ.I.I.IbG.I#h#h.I.I.IaSaSbGbG#h#h#hbWbW#7#7bW##bW.I.Ia1a1aNa1aN#Pa1#P#Pagag#Pb1#AbKbS.xbf.xbn#.#6axb1b1b1#P#Pb1b1.D.D.Da2a0............#r#J#o.G#e.2.RaA#Q#1#ma8a8#M#l#2bn.V#i#i#WaW#W#W#W#W#WaW#RaHbu#Rbu#R#R#R#i#i#i#R#i#Rbub8.rbgb#b#bfbf#n#Gba.Xba.v.XbX#J#o#O#O.8.8.8.8.Ca8.CbYbY.8#Oa8a8a8bYbY.SaibXbXbX.L#T#TbXbX.pbXbX.p#T#T#p#p#pbUbUbUb7b7#Yb7bUbUbabJa8ae.8#0#0bV#e.RaA.R.....R#r",
"#Fac#F.Tbd#l.X#O#O#O.R.R.....R.R.R........aL.7aL#Z#Z.b#Saxaxax#4#4#p#p.....R........#r#r#r#obQ.8.8....#raA..................................................#r................aA.G.X.XaLaLbf#i#ibKbK#W#W#W#i#iao#i.Q.Q.Q#9bsaLaLbHbH.K.K.K.KbH#G#G#G#G#Gbu#i#g#g#g.1.1#Z#gax.Faxahahbeac#gaD#gbZbZ.M#3bZbZbZbGaCbZbZaSag#PaC#y####bGbGbG.I.I#ybGbZ#ybZb1#A#h.y.yb..y#7b4b.#I###IbWaZaZ#qac.M.M.M#P#P#Paga1a1ag#PagaSaSaSagaS.E.E#p#p.Xbabvac#q#AaSb1b1b1.D#UaA.n......aA..bdbd.sbYbYaAaq#0bFaiaiai#p#p#nbc.x.x#2bgb8b8#U.D.D.Dbu#i#Rbkahahahbu.D.DaHbubuaHbubu.D#u.Db8#u#bbgayaLbc.Kbcbaba.v.X.v.v.v.X.v.v.v#J.v.v.v.v.v.X#8.vaf.v.vaf.X#lbJba#p#n#pb5#p#p#p#p#pb5baaBbcaB#Y#Yb7b7bUb7bU#naB#MafbX#OaibYbY#Q#1.R.RaA....aAaA",
"biaU#0.....R.Raqb0aA..................aAaA.......L#c#Z#Zag#PagaD#Za8ae........#r..........#E#fbVbV........................................................#r..#r....aAaAaUaU#E#e#e.8.8aIbU.TaL.x#i#iaubSaubo#6.b#4.O.O.O#6#6.U#i#ibubu#u#u.K.K.Kbcbcbf#9#q#q#g#g#gbSbSbubuax#F.Fb1b1ag#P#AaN#A#3azbG#yb1.I.I#4#SbS#F#AaN#Ab.aDb.bZ.Ib1.IbG#yb.b.###Ib.#I#Ib4b4#t#7#7beanbG.IbWbWaD#n#n.R.R#raAaA#e.l.8b6a9b8b8#5#Z#AaOa1a1ag#P#PbD#o......a8a8b8b8#7.b#t#S#S.r#....R...RaA#Bay.X.L.LaT#vbY.s#Oaiai#lbJ#Ybf#Ub8#U.D.D#u#ub##u.Db#b##u#b.D.D.Dahah.Y#W.Yah#W#W#Rbu.D#u.D.D#ub#aL#BaLaL.7bHbH#lbA#lbAbAbA#l.X.X.X.X.X.v.X#l#lbababa#p#n#p#n#p#p#G#n#GbcbcbUbUbUb7bUbcbcbUb7b7bfbf#B#Yb7b7#YaBbc#lbJbXbXbXa8aebi#vaAaAaA.R.RaA.G",
".......R.RaAaA.RbO.R.........R#r.Rb6b6#WbK#P#Pag#P#P.bbz.x.x.xb8b8#p#p........#r..#r..#r..#r#r#r#r................................................#r................a5a5aoaobwbPbgaI.K#pbT#G.T.TaLaL.7.7.xbsbsaoao.UbK.U#kau#6#6bKbKbKbK.YahahahbKahbkbk#q#q#s#s#6bububSbS#g#S#g.Ib1bZbZb4acb4.ybZb1.I#3.M#3bebebSbKaNb1#A#s#6#ZaDaSa1aS#3#3#3#3az.M#3#SaD#gaD#Ab1#AbZbZ#S#t#p#pb5.R.R#e#e.8.8.8b6.8.t.G..#r#r..#r.....t.t.t#H#H#r#r......#o#oa9a9a9#.a9aWbK.Ib1.X#l.X....bYaeaf#lbJ#MbJbJbJb7b7#Yb#b##2b#.D.Dbu#ibubububkbkbkbkbkbkbkbkbkbkbu#i.Q.Va9a9a9b8b8aL.xaL.xaLaLaL#G#G#9#9#9.K.KbH#GbH#GbH#G#G.X.XbA.XbA#G#G#G#G#G#Gbc.K.K.K.K#B.Kb7.K#B#BaLbfbfbf#B#BbUbc#Y.K#Ybf#2#Yay#n#n#n#T#8bbbbai.z.z#m.s#v#Q.2aq.2aqaA.2aA",
"#s#s#s#n#na2bi...RbObi.NbkbkaN#CaN#P#P#P#PaNa1#a.k.k.Tay.TbU.TbK.k.x.x..............#r..#r....................................................#r..#r............#r#r#J#JbzbzbzaMaM#4bz.k.Ubwbgbgbsbs.x.7.7.7.7.#bgb8.#.#bEaobKbKbkbMbkbubMbubu#9#9#9bf.xbS.Fbebebe.V#iaZbS#t#S#S#A#AaC#3acb4#q#S#Sb..y#S#I#S.V#iaW#WaSaNa1ax#saDaDaEb1b1#qacbS#F#W#jahbJba#0#0#Y#B#Ybebeb.bZ.V#U.Vbnb8.X.vb9.Xb9.N.N...........t#r..................a.aGaGbobo.E.E.k.k.kak.kaDaD.x.x#2...RaA.Rai#O#O#l#l#n#naH.VbuaZbSb..M.MbZ.M#g#g#s.F.F.FaubKbkbkbubM#i#ibw#i#ibw.k#W.k.k.k#ibw.V.Q.Qb8bP.xaLaIaIaIbT#GbTbTbH#G#G#G#GbT#G#G#G#G.K.K#Gbc.K.K.K.K.K#B.Kbfbfbfbfbfbfbfbfbfbfbf#BbcbUbU#BbU#2#2bf#2.j.jbUbJbJ.p.p#8bX.4aiai#mae#v#v#v#e#Q#1#1",
"a1aNaN#P#Pa1aNa1a1a1aNaN#g#g.F.F.F#ibu#i#ia9.Q.V.xbsbvbv.xay.xa9a9bsbs....................................................................................#raA#r........#G#G#G#ZaM#P#P#P#P#P#P#P#Pa1a1aNa1#C#C.O.ObKbK.FaobEbEbEaoaoaobE#u.7.7.7.7.7bAbA#6.uazazazbhacaxac.hbSbS#IaDbGaC#FbS.0#U.rb#.r#baF#D#nb5#B#Y#RaY#R#2bf.V.Dbeaxax.V#i.V.Va9.Va9.L#M#Oaia9b8#UbSax#j#j.VaJ#iaH.VbYbtaqaAaq.....R...R...R........#raAa4.G.t...........Q.Q.w#AaMaDaMaD.bbhbzbdbHbd.........R...R#0aUb8#ubebe#q#P#Pa1a1a1aNaNa1aNa1a1a1a1a1#P#P#aa1#C#C#C#5#5.O.Obzbzbz.W.W#kaubK.U#kao.Q.#bgbg.7bg.7.7aLaLaLaL.7.K.K.KbH.KaL.K#9.7bf.Kbfbf#B#9#9#9#9#u#u#u#uao#u#u#u#9#u#u#u#ubg#ub##ub8b8b#b#bu#U.VaHbu#U.raF#2aFbcaB#l#M#lbJ#lbXbX#1bi",
"#P#P#PaNaN#sbebu#ibu#u#u#9#9bEbEbE#W#Wa9.Qa9#.a9.Tbx#o#obxbxbx.x.x.TbU....................................................................................bO..bO........b0aA.6b9.vboau#Pa1#P#P#Pa1a1#a#a#aaN#aa1#P#P#P#P#P#P#P#P#5aQ#5bzbz#kau.U#W.kbVbV.T.TazaQ#3ag#Pb1b1#qbh#qacac.yb.aW#jaYaB#na7#lbF#0bFaqaq#Q#Qafaf#8bcbc#U#Ube#Fbe#q#F#i#i#A#A#Aaxaxah#jbZb.bZ#I###FaZb#b#b##M#8bi#v.2.2.2.R.R...R...R.........................Gb0.GbEbEagagagagag.b.b.7bs#pbT#p..............aA.Rbt#Obgbgbg.1aNa1a1a1a1a1a1#Pa1#P#P#P#P#P#P#P#P#P#a#a#P#P#a#a#P#a#P#aa1aOaO#C.g#C#Z#Zbz#qbMbkbM.DbE#u#u#u#u#u#9#9aLbf#9#9#9#u.D#u#uaHbububkbkah.F#s#s#s#t#q#4#4#q#q#q#q#qbe#q#q#q#t#q#tbebe#F#s#sahaZ#UbmbU.jb7bc.j#nb5#M#l#Ma8bY#e.2",
"ayay#B.x.xaLaLbgb#bg.D.D#9#9b8bgb8.k.k.k.k#..##.ay.T.T.ja9a9a9.x.xbdbd..............................................................................................bObO..bObO..bO.N.NbK#WbK#C#C#P#P#P#P#P#P#Pa1#P#P#P#P#P#P#a#a#P#P#P#P#P#P#P#P#P#P.8.8bV#fa9.Qa9aQ.EagaSag#Pagb1#3#g#Sb##2#b#T#8bUb7#la7#lb7b7#B#b#R.Y.Y#g#S###Z#g#g#SbZbZbu.Vbebe#qbJ#pa8aebUb7bUah#j#qb4ac.3beaY#R#R#ib8#ub8#p#n#0bi.R...R..............aAaAaIbH#ZaM#Z#P#P#P#P.b.b.b.xay.L#cbIbIbI.........R...R........a2bia2aLaL.1#CaNa1a1#P#P#P#Pa1a1a1#P#P#P#P#P#a#P#P#P#P#P#P#Pa1#P#P#P#P#P#P#Pa1#PaN#a#5#5.M.O#gbe.W.F.FaubKahbkbK.Fahah.F#sbebe#g#g#g#y.M.1.1aNaNaNa1a1#Pa1a1a1a1.1.1#C.1.M.M.M###gb4#qaZ#saZaYaY#bb#bcbcaBbUbUbJ#p.8.8#O.2.2....",
"#bbg#2b8b8#bbg.D.D.D#u#ubHbH#p#p#payay#2bs.x#Yaybxay.jbxbsbsbs.x.xbxbU................................................................................bO......................aAaAb0b0bO..........bOa2.Na2bAbAbMbMaMaMaMaOaO#a#a#a#a#a#P#P#P#PaOaOaO#J#JbtbtbHbH.TbUaI#lbv#9.x.xb8b8#q#q#Cb1b1.1b1aNaNa1#Pa1a1a1a1aNaNb1aNaNaN#3#3aD#Z#Z#3b1#6#6#Z#Z#Zb8a9bUbUb8b8b8.FaxaxaxbebebeaD#ZbZ.M#y.M#yaN.1#P#P#P#P#P#P#PaNa1aNaNaNa1a1#6#6bgb8.#aIbUaIbUbd#pbd#o#obvbv#raA#r.....R...............R...............RbO.Ra2.N.v#JbE#ubE.O.O#C#CaNaOaOag#P#P#P#P#P#P#P#P#P#P#Pa1#PaNaNaNaNaNa1aNaNaN#C#3#5#Z.MaM#Z#5#Z#4.O#t#6#6#4.O#g#Z#Z#Z#Z#Z#Z#ZaM#Z#5#Z#5#5#5#5#5.W.W#q#q#Z#g#Z#Z#5#g#g#q#q#qahaha9#UbA#p#pbt.8aAaA..........#raA",
"ay#Yay#U#Ub8#Ub8#Ua9b8.rbfbfbfaLbfbUay.x.x#.a9#.#Y.xbdbd#.bsbsbs.xayay...R..........................................................................................aA#r........bO.N.N.N.N.Na4aA#r#r...............tb0.ta5a.bTbTbPbP#ubz.O#C#CaM#5#5bAbA.8.8.XbAb9aLay.##9bU.KbUbXbX.8aebX.v.v#G#n#R#R.M.M.M.1.1a1a1a1a1#P#P#P#P#P#P#P#P#P#PaO#A#P#P#PaS#aaga1#P#P#P#P#Pagaga1aSa1#P#Pa1a1#P#Pa1#P#PaNa1aNaNaN.1bG#q#q#ubE#u#lbA#J#J#J#O#O.X.X.TbU#pbd#pbD#o#T#J.GaA.G...........................RaAb0...R#raAaA..#r..........#z#zbta5.ibTbAaLaLa9.QauboauaMaMaEaEaSaNaNa1a1#P#Pa1a1a1a1#Pa1a1aNaNaN#C.1#C#C.M.M#5#Z#Z#5#ZaQaQaQ.gaOaOaO#a#a#a#P#P#P#P#P#P#Pa1a1#Pa1#P#P#P#C#C#6#6.#b8.#bvbAaTaU.G.G.G................#r.G.t",
"bc#pbc#U#Ubybybu.Vbu.DbE.D.Db8#Ub8bUbU#2bs#.a9a9ayaybdbd#.a9a9.T.Tbvbv........................................................................................................aAb0.N.Nb6b6bQ#J#J.a#Ja5a5a5#z#z#r#r....................#r#r....b0b0b0a.b6bTbTb9bAbv.7.#.x.7ayaIaL.TbU.X.XbX#J.v#ObXbtae#JaX#J#p#Gbf.7aobu.Q.k#W.Wbz.O.O.O.baM.ubzbobo#6bw.k#k#kbK.kbK.kau#6#6.O.b.b#4#4#g#g#s#sbe#R#W.D.Dbfbf#B.K#G#G#G#G#n#G#J#O#l.XbA#lbA#pbA#p#p.Xbv.X.L.L.X.LaA#r#r#r#r..................aA.R#raA.G.NaTbVbV#f.G.G......aA....................#z#z#faTaT#o#o.Tbd.7.7.x.#b8ao#iaubKau#6#6.O#q.O.O.O.O.O.O.O#Z#Z#5#5aQ.gaO.w.w.w#P#P#P#P#P#P#P#P#P#P#PaOaOaOaQ#5bzbzaoaoao.XbA#z#eaA#r#r......................#r.t#r#r......",
"#p#p#p#2.xb#bg#2#9#2b#b#bfbf#9bg#9#2.xbgb#aybUay.T.ja9a9ac.uac.x.xbtbt.R.R....#r......#r..........................................................................................b0b0aUaUaUb6b6bA.XaI.TbHbxaIaLaIaLbx.7bxbxaI.TbIbIb9#Jb6.8a..G.G.G#J#obdbd.X.L.X.l.l#z#e.Lbv.L.X.X.L.X#p#p#pbdbH.K.Kba#GbabH#G.TbHbabTbA.X.XbA.X#c#cb9#J#obQ#o.AaG.A#f#E#f#faG.AaG#o.8bD#o#o.8#o.X.Lbababa#pba#l#l.v.v#l#l#l#G#n#l#l#Gba#Gaeae#0#0#0#0#0b6#ObX#T#T.v.L#T#T.X.X.G.G.G............................#e#z.8.8bAbAbvaLayaLaybcbd#G#T#TbYbYbibV#1aA.G..#r..........................................bO......bO..bObObO....bO#r#r#r#r#r.t.t.t#r#r#r#r#r#r..#r............................................#r..#r................#rbO",
"#M#8.L#2#2#U#Ub#b8b8.D.Db8b8b#b#b#.KbUb8#.bUbU.j.x.x.hbSac#qacaybUbX.v.8.8.8.2.G....#r............................................................................................aAaA.Na2a2bI#JbAbAbHaIbHaLaLaLaL.7.7aL#9.7.7.7aLaL.KaLaLaL.7#o#o#o#o#obdbdbvbA.L#e#zby#ibh#4.baW.kbUbUbababvba#l#p#G#l.X#l#G#G.v.v#JbX#JbAbAbTbdbAbAbA.a.8#f#fbtaGbt#f#faUaTaTaGaT#o#o.X.X.v.L.v#p#p#n#G#laf#l#O#Oaeae.vaf.v#nbc#l#laf#l#l.v.v.v.v.X.v.X#l#lbAbabAbvba.X.X.X.XaA.GaA............................#z.GaTaUbI.v#TaIbU#9bs.x.x#2.Kay#p#p#T.L.vbtbtaTaUa2.2#e#raA...................................................................................RaAaA.R...R.....R.R.R.R...2.2a2bV#ea2#eaU#0bV.l#r#r#r#r#r..............#r..",
"#pb5#pb7bU#2bf#9#b#2#9#9bubu#q#q#qaN.1b8b#ayayay.Kaybc.T#G#G#G#p#G#W#W#s.W#s.N.N..................................................................................................#raA.N.N.N.Cbtb6b6.v.v.vbabA#G#p#n#nbc.K.KbfbfbHbU.TayaL.Tay.L.X.LbI#T.ibd#o#o#o.j.T.hboaxaxaxaxaxaD.bbZ#5.M#Z.E.Eb..M.M.Mb1.1#Pa1#Z#Z#Z#ubE.8.8#z.2#zbt.8.8.8btbYa5#e#ebV#ebV#1bV.CbYbX#T#T.v#Tba#l#l#l#l.Xafafaf.Cae#0#0#0aXaXafafa7#la7afafafafbaa7ba#p#p#M#l#obX#obXbX.L#TaAaAaA............................aA.GbV.lbt.8bt.X.Xbc#GbUbUbUb7b7b7bcbc#nbcba#lbvafbv.Xbv.Lbv#T.LbX.p#o#O.Sa8a8.S.S.8.8.8.8#o.8#o#o#o#o#J#obIbIbI.L.X#J#J.X#T.X#p#p#G#n#p#p#p#nbcbcbca7b5baa7#lb5#p#l#lbJ#nba#laf.p#Oaiaea8#1#1aAaAaA..#r................#r",
"#O#Oaibcbcb#b8#b#b#9aHbubGbGa1#Pa1a1a1#9#9.K.K.KbU.KaL#Bb8#u#ubu.Dbebeau.F.F#db0..........#r......................................................................................aAaAbVbibi#O#O.v.v#l#l.X#l#l#l#l#l#l#l#la7bab5#p#G#GaLaLbU.T.L.X.Lbabv#.#.babv#p.x.xacac.b#4.b.b.bbZ#3#Cb1b1#3#3#3#3#3#3#3#Pa1#P#P#P#P#PaSaN#6axbI.vbIbYaU#o#J.Lb9.La8bta8btbtbt.8.8.8.X.L.X#l.Xba#p#lba#l#l#l#n#naXaX#0aeae.vafafaf#l#l#laXaXaX.4.v#8#Taf#TbXbX#o#o#o#T#Tbaba.GaAaA.......R....................aAaAa2#ebtbta8.X#M#p#p#nb5#n#n#nb5#na7a7bJ#M#M.L#M#T#T#8bX#TbX#T#o.pbXai#oai#Oai.8ai#o.pbD#T#obD#o.8#o.8#obD#o#ob9.L#T#T.X.X.X#G#GbUbUbcbcbcbUbUbUb7#Gb5#nbJbJ#pb5bJ#l#M#lbJ#T.La8bb.S.s#0#e#e.....R#r....................",
"aXaXbX#B#Bbubu#b#9#b.D.D##.M#t#g#t.Db#bcbc#Bb7#B#9b#bubu#4#q#4#q#qbKahbH#GbHaAaA..............................................................................#r#r#r...............GaA.2.2b0.C.C.vaX.v#l.vafafafaf#l#l#la7#laf#lba#p#pbUbc#p#G.Laf.L#o#ob8b8bUaybUbybyax.Facac#q#S#g#3.Mb1b1b1aNaNa1a1a1a1a1#P#PaNaNaNaNaN#P#P#P#Pauau#k.8.8.8a.#c#cb9aGa..S.S.S.Sa8.S.8#obD.L.L.L.X.Xbaba#l#laf#G#laXaXaeaeaea7#la7a7#la7#lafafba#l#na7#nba#p#l#M.XafbvbababHbca2a2#Q.R.R.R...R...R...R...R.......RaA.2.2bY#0bYaXbX#M#8af#l#l#8#l#la7#M#l#Maf#8#8#T.p.paX.p.zaiaiai#O#Oa8bbbYbYbYbYbY#O#O#obX#O#O#oa8a8a8a8bX#obX.X.XbvbAbA#pbv.T.TbUaybUbUbU#Yay#Y#Y#nbc#n#pbJb5#p#M#M#M#M#M.pbB.sa8.saTaT.G.2.R...R...R..................",
"#G#G#p#G#n#nbc.K.K.K#9#9#W#W#q#q#4#5#5aNaN#aaNa1a1#P#P#Pa1#Pa1#ibMa2a2bO..bO..............................................................................#r#r................#raAaUaU.RbO.R.Na2.v#J#l.X#l.v.vaX.v.vaf.v#l#l#n#n#Gbabababababa#l#l#lbY#0#0bYbnbsbn#AaNagagaga1aSaOaE#3#3aNaNaN#P#P#P#P#P#P#P#Pa1a1a1#P#P#P#P#P#P#P#aag.wbwbP.l#HbA#c.X#c#c#o.a.a#o.a.S.S.S.Sbv.Lbv#T#T#l#l#l#la7afafafafaeaeaeaeaea7baa7#l#lae#m#nbabcbH#nbUbcbabv#O#O#O.8#obt.C#J.v#Jbibi.R.R.........................G.Ga8a8bY#o#O.L.LbJ#MbJbJ#M#MbJ#M#M#M.Laf#TbXaX#ObX#O#O#O#OaebtbbbY.CbY.C#v#1#vaT#vbY#0aT#0bi#1#1#0bY#ObX#obJba#l#l#M.X#M#lba#l#l#lba#lba#l#l#lb5#pb5#8#Mb5bJbJbJbJ#M.L#T#TaTaT.s.l#1.2.G..aA#r......................",
"bUbH.K#u#u#WbK.F.F#6.O.O#C#Ca1a1a1aNa1aNaO#P#P#P#P#P.g#CbP.#bP#za2........#r....................................................................................................#rbtbt#za2#z#0aU.vbI#lbAbA.v.v#J.vaX.v.v.v.v#l#l#l#l#l.Kbc#Gba#9#9bf.KbU.X.XbcbUbH#2bs#t.Ob1aEb1ag#P.w#A.g.gaE#Cb1a1a1#P#P#P#P#Pa1a1#P#P#Pa1#P#P#P#P#P#Pbobo.8a..Lb9.LbDbDa..S.S.S#o.S.S.Sai.L.L.L.pbXb7#na7af#laXaXaXaX#0aeaeaeaXa7#GaX.vafbaba#i#Raxax#6b8b8.X.X#o#o.8#T#J.X.XaLaLbfb6btbO.R...............R...R.R...2.Ga8a8.Sai#obB.L#M#M.LbBbB#TbB#T#8.LaXbX#obX.8#O#Oa8bta8bta8a8a8.CbYbYbYaTaU#0aTaUaTaT#0aTbYa8bt#O#ObXbXbX#T#T.p#obXbXbX#M.Xaf#l#l#l#la7#la7#l#l#l#l#l#lbJ#l#M#T.L.p#T.p.p.s.saTbFaT#e#e#r..........................",
"#P#P#P#P#P#P#P#P#a#Pa1#a#P#P#P#P#P#P#PaOaO.#.#.#bVbV#r..#r#r#r#z#z#z#z................................................................................#r............#r#r..........a5a5.NbV.N#zb0aU.Nb6#Ob6.X.vbA#lbA#l.Xbaba#G#G#l#G#la2.2.R.Rb8b8#u#3#3#g#g#i#i#i#9.x#G#G#l.X#l.X.X#naI.D.DbE#g#ga1aN#P#P#PaNaNaNa1#P#P#Pa1a1aNa1#Pa1#P.F#6#J#JbdbH.TbAbv#T#Tbv.X.Lai#ObYbYbX.pbXaf#l#n#n.Y.Yah.1.1.1.1.Db#b##l#G#b#9.D#ub##l.X.KbHbabAba#J#J#p.ibUaIaLa9a9.u.Wauboaub6b6............................#raAaGaGaG.S.SbDbD#TbD.Lai.S.p.p#o#o.p.S.Sa8a8bY.saGbYaTbYaTbYaT.saTaTaTbVbYaGbYaTaTbiaTaTaTaTbYa8#o#o#T#c#Tbv.XbX#T#l.X#l.Xaf#l.Xaf.vaf.X#la7baafaf#MbXaX#T#T#O.p#Oaiai.S.S.saGa8aG.s#H.l......#r..#r................",
"#P#P#P#P#P#P#P#P#P#P#P#P#P#P#5aM#5#k.Ub6a.#r#r#r.....t.G.l#z.l#f.AbVbV..#r..............................................................................#r........................a5a5bVbV.N.2#zaUbi#J#J#ObAbA.X.X.v.v.X.v.v.X.X.X.v.X.R.RaAaA#9#9#2#3#3#P#P#3bG#Cbe#qahahaL#BaL#l#lbaba.X#l.v.v.v#nbc#u#u.D#4#t#Z#g.1.1#C.1.1aN.1#C#3#C.D.QbX.vbsbsbg#9bs#9#9#9#2#9#p#p#O#ObX#8#Taf#l.Kbc#s.F.Fa1a1.1.1#ub#.DaX.v#l#G#l#lbA.v.vbA#lbAbA.X.x.x.Q.Q#W.k.U.E#Z.g#3bxaLbx.N#z......#raA......................#f#f#f.S.a.pbD.L.L.L#obD#o.p#o#oai.S.S.SaGaGaG.s.AaTaTaT#faT#f#f#1.l.laGbYaGaGaTaGaTaGaGaGa8a8#o.a.L.L.LbAbv.vbI.Xba.X.X.X.X#l.v.v.v#lba.Kbc.X.vaf.X#M#pba.S#oai#f#f.l#e#f#f#fa8a.#f#f..........#r................",
"#P#P#P#P#P#P#PaMaMaM.#.#b6a..t.G.t#r#r.....G#z.G.A#f#f#fbVbVbV.8aGbV#f............................................................................................................btbt.Ca5bt#z.G#EaT#J#o#J.L.v#o#o#o#o#o#TbD#TbX#O.8#O.G.2#1bVbX#T#Jbgbg.1.1#P#P#PaNaNa1a1#5.M#5ahbK#9#9#G.K#G#G#G#l#G#laf#l#l#l#l.X.vaX.v#O#O#l#l#G#n#G#J.vbt.8.v.v.v.v.vbX.v#T.v.vae.C#v#0aXbXaX#l#laeaXaf#laf.K.K.K.K.vaX.vb6aebA.X.X.v.X.K.KbEbE.Fbo.FaQaQaNaO#P#P#P#P#P.U.U.N#E.N........#r#r#r................#r..#r#f#f#f.SaGbDbDbvbD.LbDbD.pbDai#o#o.S.S.S.S.saGaGaTaTaTaTaT#faT#f.l#f.l.l.l.l#e.l#e#e#e.l#e#f#fa8a8.8.8#o#o#J#T#Tbabvba.Xaf.X#l.v.v.v#lbAbc#n#Oai.8ai.8#o#T#0aTaT.G.GaAaA.l.l.laTaG#e#e......#r..#r#r..............",
".t#z.t#r#r#r#r#H#H#Ha5.Aa5a..8#o.8#c.L.S.S.S.S.SaT#faT#f.S.S.S#f#f.GaA.G.G.G..................................................................................#r..................a.b6bHaI.T#faU.lbVbVbVbVbV#fa8aG.L#c.L.L.L.8.S.Lbv#c#H#z#f#fbT.ibT#r#r#r#r#ibMbk#CaNa1a1a1a1a1a1a1a1a1a1a1a1.1.1#g#g#4#4#4.FaubE.D#u#u#u.KaLbT#GbAbabT.X.XbA.X.X.X.X#J.vb6.8aX#O#O#O#OaX#J#l#l#G.v.vbfaLbkbkbk#6.F#g.O.M#5#5.M#3aN.1#a#a#aa1#P#P#P#aa1#a#P#P#P#a#kbKbKa..8..........#r#r..#r.........................G.t.A#f.A#faG.SaG#o#o#o.S.S.S.S.s.S.saGaGaT#f#faTaT#f#faT#f#faT#f#1#f.l#fa8a8aG#e#z..........aAaAbVaT#o#J#O.X.L.8#O.S.8.S.2#eaAaA.R.R.R.2.2btae.R.R.R.RaA#1#1.laT#1#o#obvbvbdbd.TbIbI.G#z..........#r#r..............",
".AaG.A#o.a#cbvbTbdbdbx.T#p.ibDbDbDbDbDbD#o.S.S.S.S.SaTaT.l.l.l#e.lbFaGbv.ibJ#E#f..........#r#r....#r..#r..........................................................................#r#r#z#H#zbVbV#fbVaG#faTaGaT.AaGaGaG.AaG.AaGaGa.aGa..G.GaG.AbI#cbD#H.laA#r.GaA#r..bO.KaI.O.O.O#P#P#P#PaNaNaNa1aN#P#P#P#P#P#Pa1#P#Pa1#aa1aOaO#5#5bzbz#4.U#WbP#uaLaLaLaLaLaL.K.7aL.7aLaLbf#9bkbkbk#q#4aN#a#P#Pa1#P#Pa1a1a1aNa1a1#P#P#P#P#P#P#P#P#P#P.g#C.gao.QbV#f.......G.t#e#H......aA#r....................#r.......taA.l.l#faTaTaGa8a8a8a8.sbF#1#1.saT.saTaT.saTaTaT#f#1.laTaTaT.saT#1aT#e#e.S.S.S.Sai.l#1#e.l#e.l.l#1bV#O#O#obXbX.8ai#T#T#Tbtbb#T#Taf#Maf#O#O.L#M#pbJ#p#MbB.p.p#e#e#e.sa8.L.L.L.X.LaGbYbVbV............#r..#r..........",
"#p.ibdbxbxayayayaybxayaybdbd.L.L.L.L.L.L.L.Sa8a8bY.saT#1.2.G.2#e#e#T.L.V.Qbwbtbt#r#r..............................................................................................#r#r#z#z#z#f.N#fbV#fbV#f#f#f#f#f#f#faT#f#f.l#fbD#c#c.t.t#H#H.A.A#x#z#z.Aa5a5a5a5........#d#d#dbHaI#qbza1a1a1#P#P#P#PaNaN#a#P#P#P#P#P#P#P#P#P#P#PaNaOaOaQ#5.Obzbo#kbobMbMbEbEaoaobubKbk.W.W#5#5.Ma1a1a1a1a1#P#Pa1a1#Pa1#P#P#P#P#P#P#Pa1a1a1#C#CbMao.8a5.8#r#r#r#rbVbVbVa..8aGa5............................aA#r.G........#z#e#z.l.laT.laTaT#1.l#1#e#QaTbFaT#1#1#f#1.l.l.l.l.l#1.laTaTaT#1#1#e#e#T.p#T.L.LbYa8bYbYbY.Ca8#0bY.8#O.8#O#obba8#T#TbB.pbXbJ#p#p#p#p.pai#8#T#M#MbBbJ#pbB#T#e#e#ebba8#MbvbabvbabYbYbVa2............#r..............",
"bx.T.j.T.jbd.ibd.i#pbxbxbx.T#pbv#p.L.L.pbDbYbYa8.l.la8a8.L.L.L.x.x#.#..L.L#T#z#z....#r#r#r#r#r....#r#r#r#r..................................................................................bV#z.NbV#E#E#f#E.A#faT#f#f#f.A#f.A.AaK#zaKbD#cboax.#.#bs.t.G#z#zbQ#JbQbAbA.Xb9#J#J#Jbta5.N.Na4aA#r....bO..b0aAb0.Xb9bHbH.#.#.#.U.U#k#k#k#kbo#k#k#kbo.U.U.UbPaobPbPaobPbEbMbMbMbMbkbKbKbK.FbMbMbEbEbEaIaL.X.Xbtb6bt.NbV#r........a2#zbVbVa5.8a5bIbI#o#o#EaG.A#f#fa5aGaA#raA#raA..................#raA#r..#r.R...G.G.G.l.laTaT#vaTbF#1#1#1#1bF#1#1#1#1.l#1#e#e#e#e.2.2.2.2.2.2aA.2aAaA#1aT#v#obX#1#v.l#1#1bY.sbi#1.CbYbYai#Oa8a8.p.p#oaibb#T.L.p.p.p.s.s.p.pbB.LbB.LbB.LbB#e#Q#e#1#1#o.pbD#TbIaT#E#e#z............#r..............",
".Tbd.j.jbx.j.j.xay.xbs.x.jbx.L.L.L#o#oaGbY#f#faTaTaTbvbvbsbsbs.V.QayaL.G.t.G#r#r......#r#r#r.ta4#r.t.t.t..#r..#r........#r......#r......#r......#r..........................................#r#r.Gb0#HbV#z#E#E#E.Aa5.AaU.AaUaGaGbVbVbV#fbV#o#o#z#e#z....bVbV#o#o#JbAbT#JbIbIb9bI.XbI#J#J.8b6.8#EaU#z#e#r#r#r......bO..bO............bO..bO..#r#r#rbO#r#r#rbO#r#ra4#rbO....bO..bO..bO..........bO............#r#z#ea5aG.8bta.#J#J.Xb9.XbA.XbvbA#c.X.8.8.8bVbV.G.GbVbVbV.G.G................................#raA#r#e.l#f#faTbVaT.l#1#e#e#e#e#e#1#1#e#e.2.2.2.2.G.G.GaAaAaAaA.R.RaA#e#e#e#O#O#e#e#e#e#ebta8#1aTbi#0aTaT#0.s.s.S#oai#o#obJbJ.L#M.LbYa8.p.pbD.p#T#o.p#o.p.GaA.G.2#e#o#o#obD#obVbVaAaA............#r..#r..........",
"ay.jbxayayaybx.T.T.Tbd.j.T.Tay.7aya9a9.k.kauauaubz.Wauaubx.7bxa5.8#r#r......#r#r#r#r#ra4#rbO#r....a4#r#r....#r#rbO#r#r#r#r#r#ra4#r#r#r#r#r#rbO#r....bO....................................................#r...G#r.t.t.G.t.taA#r.2b0.2.2.2#Qa2#O.8#O.L.v#obX#J#T#o#p#p#J#o.8#O.8b6#ObI.L.v#T.XbX#J.Xb9#G#GbTbAb9#JbIa5a.a.#x#x#x#E#x#x#x#x#E#E.Z#EaP#E.N.ZbV.Z.N.N.N#E.NaUaUaUaUaUa5.Cb6#o#JbI#JbIbIbI#Jb9.LbI.X.X.X.XbIbIbI.X.LbIbI.8.8.8.8.8.8.8bYaGa8aUaG#o.8bxbxbxa.a.......................#r....#r..#r..#r#z.G.l#H.l.l#e#f.lbYaGaTaTaT.l.l#e#e#e.G#e.G.GaAaA.R#r.R....aA..#e.G#z#T#c#e#eaAaAaA.l.l.2#zaTaTaT#o#oaTaG.saGaG.l#1.S.SbYbYbY#1#1#obD#TbD.pbDbD#o#o.l.l.lbvbv.#a9.i#G.ia2#z#r#r............#r..............",
"bdbdbdayaybsbsbs#.bsbwbwaxbo.b.b.baQaQaM.EaQaQaQ.baM.TaI#zb0#z........#r#r#r#r#rbO#ra4.ta4#r..#rbO#r#ra4....#r#r#rbObO#r#r#r#r#r#ra4#r#rbO#r..bO........................................#r#r.......................................R...R...2a2#p#G#pb#b8.KbU.X.X#l#o#o.Xba#obX#J#O.8#Ob6bIbI#J#T.v#JbX#J#J#J#JbIbQbIbQbI#JbIbIbIbQbQbQbQa5a.#x#x#E#x#E#x#E#E.N.N.N.N#E#EaU#xa5a5aUa5a5b6.8bI#JbI.vb9.vb9.XbIb9bI#c#J#J#o#o#o.8.8btbtbt.8btbI#TbAbv#J#o#J#o#obH.Taoaoaob9b9#r......................................#r#r.G#r.t.G#z.l#EaGaGaGa5aT#E.l.l#z#z#z.G.GaA#r...............G.G.G.Tbd#obD.AaGaG.8.8#z.G.lbVbV.8#obVbVaGaTbY.8#obdbd.i.ibJ#o.S.LbD.S.S.SaTaTaTaGaTaTaT.T.T.Qa9.abQ.8....................#r..............",
".xay.x.k#k.E.Eagagagagagagag#Pag#P.waO.gaQ.k#k.k.Xb9#z#z..............#rbO#r..bO....#r....#r..bO..#r..#r..bObO..bO......bO....bO................bO....................................bO..bO..bO..bO....bO....bO........bO....bOaA.GaA.....R..bAbabAauau.F#6b8#ub8aI.T.X.X.v.v.X#JbX#J#J#O#J#J#O#J#O#J#J#J#JbQbQbQa.bQbQbQbQbQ#x#x#E#E#E#xa##E.A#x#x#x.A.A.A.A#E#E#E#E#E#x#Ea5a5a5a5#x#J.8b6.8.8.8b6b6#J.8b6#O.8b6btbta5.Cbt#J#J#J#J.X.X.X#J#JbI#JbAbAbAaIbH#k#kbPaoao#x#x..................#r#r#r............................#r#r#zb0.N.NbV#z#z#z#z.G.G.GaA.G#r#r#r............#z#z#zbvb9.7.7bxaLbxbI#J.lbV#H.l#H.8a.aGaGaT#E#fbs.#aOaO.E.E#5bxayaGaGaT#faG.l#f#f#f#f#f#f#f#fbV#Hb0.G.G....................................",
"#P#Pag#Pag#P#P#P#P#P#a#abzbz.ibT.i#r#r..............#r...t.t#r.t.t#r#r............................................................................................................bO....#r..#r..#r#rbO..#r#r....bO..#r................aAaA...........Xb9aMaM#P#P#P#P#PaN#C.O.O.O#ubEbA#p.v.X.vbAbAbA.X#J#J#JbTbAbQ#JbQ#JbQb9b9b9b9b9b9bI#J#Ja5a5#EaT#E#E#EbV.NbV#fbV.NbVaU#E.Cbt.Cb6.8.vb9.X.X.X.XbA.XbI#J.vbI#J.v.X.XbT.XbT.X.XbT#G.7.7#9.W.W#5aQaN#aaN.1aO#u#u.6.t.t........#r.ta4..#r......bO........bO#r..#r#rbO..............................................................................................#r#r.Gb0...........G.Gb0.t.G.t.Gb0.G.G.G.G#raA..#r........................................................",
"#P#P#P#P#P.w.wbobobob9b9.taK...............t.t#r#z.G.t.G.G#r.G.t#r#r#rbO....................................................................................................bObO..bO..#rbO..#rbO#r#r..#r..bO#r#r..#r..#rbO#r..bOa2bC#d....#r#raA#ra4..bO.X.XaQ#5aQ#P#P#P#P#P#P#P#a#aaM.OaoaoaoaIbH.X.XbI.Xb9#J#Jb6b6#Jb6#JbIbIb9.vb9.vbI#J#Jbtbtbtb6btbtbt.Cbt.Cbt.Cbt.C.C.Cb6#Ob6.v.vb9.v.Xb9.Xb9.vbIb9.X.X.X#GbTbHbHaIaIbH.UbM.O.O#3#C#C#aa1#P#P#P#P#P.W#6b0a4........bO#ra4.t#r#r........#r#r#r#r#r#r..#r#r#r#r#r#r#r..#r#r..................................................#r#r#r.................................t#r........................#r........................................................................",
"#T.X#T.8.8#z#z..........#r...t.t.t.t.G#z#z.l.lbV.l.l.G.t#r..#r..#r..#r....#r............................................................................bO..bO..bO..bObO..#r..#r..#r#r..#r#rbO#r..#r#r#r#r#r..#rbO..#r......#r.........Nb3bObO......#ra4bOa4b6b6a..W.W#a#a#P#P#P#P#Pa1#P#P#P#P#P#P#C.1.O.O.O#W.U#ubP.K.K.KbAbA#Ob6#J#O#J#J.v#J#Jbtaebt.C.Cbtbt#Ob6#Ob6#O#O#OaX#JaX.v.X.X.XaIaIaIaobE#kau.O.Obz.g.g#a#a#a#aa1#P#PaOaO#P#P#P#P#P#5#5aIaIaIb0aAa4aAbObO...t#r.ta4#r#r#rbO..#r..#rbO#r#r#rbO..#rbO..bO#r#r#r#r#rbO#r#ra4#r#r#r#r#r#r#r......................................................#r#r..#r....................................#r....................................................bO................",
"aA..aAa2#e#EaUa5a5a5bIbIbIbIa..8aGaG.A#HbV#f#fbV.l#HaA#r........#r....................................................................................#r#r#r#r#r#r#r#r#r#rbO#r#r#rbO#r#r#r#r#r#r#r#rbO#rbO#r#r..#r#r#r#r#rbO#r..bObObObO..bObObObObObObOb0aAa4a4a4bObO....#db0#dbHbH.O.O#P#P#P#P#Pa1#P#P#a#P#a#P#P#P#P#P#P#P#P#P#PaN#a#a#5#5#q.W.Fauau#ibubgbg#u#u#u#W#W#q.WaQ#3#C#P#P#P#P#P#P#P#P#P#P#P#P#P#P#P#P#P#P#a#a#aaQaQ.UbMbQb6b6......bObCa2#dbCa2bObO............#rbO#r#r..#rbO#r..........#r......................bO..................................................#r................................................#r..................#r..........#r....#r..#r..#r#r#r#r..#r..#r#r#rbO#r#r#r..bO..#r#r....",
"btbtbtbX#J.vbIbIbIbI.Xb9b9b9a..8a.aGaG#fbV#f#f#fbV.l#r.G..#r...t#r#r.t........................................................................#r..#r#r#r#r#r#r#r#r#r#r#r#r#r#r#r#r#r#r..#r#r#r#r#r#r#r#r#r#r#r#r#r..#r..#r..#r#r..bO..bObObO............#ra4bCa2bC#E#E.N.N..........#r#rb6a5b6.7.7bzbz#P#P#P#P#P#P#P#P#P#P#P#a#P#P#P#P#Pa1#PaQaQ.OaMaMbo.W#kbKbobobo#4bz#5aM#C#C#C#P#P#P#P#P#P#P#P#P#P#P#P#P#PaO#Cbobo.7.7aI.N.NbObO......#d#z.N.ZaUa5a5b6a.............bO#r#r..#r#r........#r#r#rbO....................bO#r..#r#r..bO......bO..#r................................#rbO........#r#r......................................#r#r..#r#r..#r......#r#r#r#r#r#r#r#r#r#r#r#r#r#r#r#r#r#r..#r..#r#r#r#rbO....#rbO....",
"#T#TbX.X.X.X.X.XbA.Xb9b9.a#JaGa5a8#EaTbV#f#fbV#f#z.laA.G#r..#r..#r......................................................................#r..#r..#r#r..#r#r#r#r#r#r#r#r#r#r#r#r#r#r#r#r#r#r#r#r#r#r#r#r#r#r#r#r#r#r#r#r#r#r#r#r#r#r.t#r#r#r#r#r#r#r#r....#r..b0.t.t.N.Za.a.a.#xa.#E#x#E.N#HbV#H.t.t#r#r......#r#r..............bO#r..#r..bO......bObObO..bO....bO..bO..bO..bO..bO.......t.G.taA.t................bO#r#r#z#d#d.N.N#E#Ea5a5a5a5a5#xaUaU#xaUbC.NbO......bO..................................#r..bO..............#r..............................................................................#r..#r....#r..#r..#r#r..#r#r#r..#r#r#r#r#r#r..#r#r#r#r#r#r#r#r#r#r#r#r#r#r#r#r#r..#r#r#r#r#r#rbO..#r#r#r..#r#r#r",
"#obX#o#TbI.X.X.XbA.Xb9.XbI#J.a.8.8.8a.#fbV.lbV.l#e.GaA#raA..#r....................................................bO..#r..........#r......#r..#rbO#r#r#r..#r#r#r#r#r#r#r#r#r#r#r#r#r#r#r#r#r#r#r#r#r#r#r#r#r#r#r#r#r#r#r#r#r#r#rbO..#r....#r......#r.........t.G.tbV.Z#E#E.A.A.Aa5a..8a..a.8.a.Sa.#f.A#H#H#H.t.t#r#r....................#r..#r..................................................#r#r.G.GbV#fbV#E.Aa5aUb6.8.8#J#J#J#J#JbQ#Jbtb6#EaU#xaU#x.Na2#r#r....#r..#rbO#r..#rbO..#r..bO....bO....bO........#rbO....#r....bO#r..#r....#r..#r..#r........................#r#r#r#r#r#r#r#r#r#r#r#r#r#r#r#r#r#r..#r#r..#r..#r..#r#r..#r..#r#r..#r..#r#r#r#r....#r....#r..#r..#r..#r..#r..#r#r..#rbO#rbO#r....#r#r#r#r..#r#r",
"#O#o#obXbD.L.Lbvb9bv.X#cbQbD.8#o.a.8.8.lbV#e#e#eaA.GaAaA..#r.R#r#r..............................bO..#rbO#rbO#r#r#r#rbO#r#rbO#r#r..#r..bO#r#r#r#r..#r#r#r#r#r#r#r#r#r#r#r#r#r..#r#r..#r#r#rbO#r#rbO#r..#r..#r..#r..bO#r..#r..#r................#r.............t.t.t#HbV#E#E.AaG.A.Sa..a.a#c#c#c.ibv.i.L#c.L#c#obI.a.aa.a.a.#E#E#H#H#z#z#z.t.G.t.t.t#r#r#r#r#r#r#r#r#raA.t.Gb0#z#z#za2#H#f#faGa.a..S.8#obQb9b9b9.X.XbIbIbIb9b9b9b9#JbIb6b6b6#xa5.N.N.N.N#E#z#e......#r..#r..#r..#r..#rbO#r..#rbO#r..#r..#r..#r..#r......#r..bO#r....#r....#r..#r#r#r#r#r#r#r#r#r#r#r#r#r#r#r#r#r#r#r#r#r#r#r#r#r#r#r#r#r..#r..#r..#r#r..#r..#r..#r....#r#r..#r..#r#r#r#r..#r#r..#r..#r#r..#r..#r#r..#r#r..#r..#r..#r#r..#r#r#r..#rbO#rbO#rbO#r",
"#o.p#o#o#TbD#cbDbDbD#o#o.8a.aGaGaG#faG#e#e.G.G.G..aA....aA.R..bO......bO........bO..bObObO#r#r#r#ra4#r#ra4#r.ta4#r#r#r#r#r#rbO#r#r#rbO#rbO#rbObO#r#rbObO#rbO#r..#rbO..#rbO#r#r#rbO#r#r..#r#r..#r..#r..#rbO..#r................................................#r...G.tbVbV#f#E#EaGaGaG.AaGa.aG.a.a.abD.a.a.abQbQbQbQbQa..aa.a.#xa..A.A.A.A.A.AaG#EaG.AaT.AaT#EaT#E#f#E#EaG#Ea5a5.AaGa5#JbI.L.L.L#c#cbDbDbDbIbD.a#o.S.8#o.a#o.8#o.8a.a8a5a8aUaU#f#EaUaUaUbVbV....#r....#r..#rbO..#r..#r..#r..#r..#r#r#rbO#r..#rbO#r#rbO..#r....#rbO..#r#r..#r........#r..#r#r..#r..#r..#r........#r#r..#r#r..#r....#r..#r......#r..............bO....bO..bO..bO..bO..bO#rbO..#r#r#r#rbO#r#r#r#rbO#r#rbO#r#r#rbO#r#rbO#r#rbO..bO#r..#r..#r#r..",
"#o#oai#o#o#o#obD#obD.a#o.a.Sa.aGaGaG#fbV#e.G.G.GaA.RaAaA..#r.R....bO..bO..bOa4#ra4#ra4#r#ra4a4a4a4.t.t.6.t.6.6.6#ra4a4#r#ra4#r#rbO#rbObObO#rbO#rbObO#r#r..#rbO#r..#r#r..#rbO#r..#r..bO#r#r..#r..#r..#r......................................................#r#r#r.t.t#z#z#E#f#faG.A#f#f#f#f#faGaGaGaG.A#f.Aa..Aa.a.a.a.a.a.a..A.A.A.A.A#E.A#E.A#f#E#f#E#f#E#E#E.A#E.A#f#x.A.AaU#xaG.Aa8a.#o#o#obD#o#o#o#o#o#o.Sa8aGaTaGbta8.8.8aG.CaGbYaG#faTbibVaTaTaU#e#e......#r....bO....#r..#r..#rbO#r#r#rbO#r..#r..#r..#r..#r..#r..#rbO#r..#r..bO#r..a4#r.ta4.t#r.t#r.ta4.t.t#r.ta4.t#r.t#ra4.t#r#ra4#r#r#r#r#r#r#r#r#r#r#rbO#r#r#rbO#rbO#rbO#rbO#r#r#r#r#r#r#rbO#r#ra4#rbO#r#r#r#rbO#r#r#r#r#r#r#r#r#ra4..#r#r#r#r#r..#r#r#r#r..#r#r"
};
