/* XPM */
static char * kt_xpm[] = {
"89 40 107 2",
"  	c None",
". 	c #F1DAB0",
"+ 	c #9B6695",
"@ 	c #E9D6B7",
"# 	c #DAD0B4",
"$ 	c #E7D3A5",
"% 	c #EFD5A7",
"& 	c #E1C599",
"* 	c #E5CC9B",
"= 	c #DCAF6F",
"- 	c #DEB881",
"; 	c #E2C386",
"> 	c #E0BB7E",
", 	c #E9BC70",
"' 	c #EEC271",
") 	c #E8B369",
"! 	c #E2AF67",
"~ 	c #EEA404",
"{ 	c #DEAA5C",
"] 	c #DBAA69",
"^ 	c #D7A565",
"/ 	c #D0A366",
"( 	c #D1A45C",
"_ 	c #CE9E5C",
": 	c #C89A65",
"< 	c #C59859",
"[ 	c #D98A24",
"} 	c #C7892A",
"| 	c #C58F3F",
"1 	c #C77C22",
"2 	c #D68524",
"3 	c #D07B21",
"4 	c #CF8130",
"5 	c #C9A597",
"6 	c #C27A49",
"7 	c #BE7447",
"8 	c #D08123",
"9 	c #AF726F",
"0 	c #AE706F",
"a 	c #B67A64",
"b 	c #B67662",
"c 	c #D28F34",
"d 	c #D4B3A7",
"e 	c #C4763A",
"f 	c #BE7849",
"g 	c #CA782D",
"h 	c #C77E21",
"i 	c #A26A88",
"j 	c #A27095",
"k 	c #B87154",
"l 	c #A26E90",
"m 	c #B78C9E",
"n 	c #AC6D6E",
"o 	c #A66A7B",
"p 	c #B26F1E",
"q 	c #C6967B",
"r 	c #C99E85",
"s 	c #B7721E",
"t 	c #A46D84",
"u 	c #B26F61",
"v 	c #B2828D",
"w 	c #C19A97",
"x 	c #B98C8A",
"y 	c #D9BA98",
"z 	c #A16887",
"A 	c #D0A883",
"B 	c #A7631A",
"C 	c #9C6587",
"D 	c #9F656C",
"E 	c #CAA6A4",
"F 	c #AA7B95",
"G 	c #A46335",
"H 	c #C199A1",
"I 	c #4F2E0F",
"J 	c #A36443",
"K 	c #5F3A2C",
"L 	c #E7CDAD",
"M 	c #BA9096",
"N 	c #A56327",
"O 	c #1E1506",
"P 	c #150F06",
"Q 	c #68403B",
"R 	c #8C5C84",
"S 	c #6E4965",
"T 	c #57341D",
"U 	c #925F85",
"V 	c #70464A",
"W 	c #211708",
"X 	c #513639",
"Y 	c #634155",
"Z 	c #2B1D15",
"` 	c #714B65",
" .	c #A26F92",
"..	c #180F08",
"+.	c #2D1E0B",
"@.	c #4F3B10",
"#.	c #573E0E",
"$.	c #473035",
"%.	c #5E421C",
"&.	c #6D4B3B",
"*.	c #493210",
"=.	c #553845",
"-.	c #32291D",
";.	c #1A1205",
">.	c #2E2817",
",.	c #373226",
"'.	c #413C35",
"                                                                                                                                                                                  ",
"    . . . . . . . . . . . . . . . .                   + + + +                           + + + + +                                   . . . . . . . . . . . . . . . .               ",
"  . . @ . . . . . . . . . . . . . # .                 + + + + + +                       + + +               + +                   . . @ . . . . . . . . . . . . . # .             ",
"$ . $ . . . . . . . . . . . . % . % . .               + + + + + +       + + + + +       +               + + + + + +             $ . $ . . . . . . . . . . . . % . % . .           ",
"& * . . . . % . % % % . . . % % % % * =               + + + + + +     + + + + +         +             + +         + +           & * . . . . % . % % % . . . % % % % * =           ",
"& - - & * * . . * $ % * % $ * ; & > = =               + + + + + +   + + + + +           +           + +                         & - - & * * . . * $ % * % $ * ; & > = =           ",
"> > . > , , ' ' , ' ' ' ' ' = = = = . )               + + + + + +   + + + +             +           + +                         > > . > , , ' ' , ' ' ' ' ' = = = = . )           ",
"> > . > ! . , ) & ) ) > , ) = = , ~ > >               + + + + + + + + + +               + + + + +   + +                         > > . > ! . , ) & ) ) > , ) = = , ~ > >           ",
") ) . ) { . ! ! & ] ] > ! ! = ! ! ~ ) )               + + + + + + + + +                 + + + +   + +                 +         ) ) . ) { . ! ! & ] ] > ! ! = ! ! ~ ) )           ",
") = . = { . { ] & ^ ^ > ] { = ] = ~ ) =               + + + + + + + + + +               + +       + +           + + + + +       ) = . = { . { ] & ^ ^ > ] { = ] = ~ ) =           ",
"= = . = ] . ] ] & / / > ] ] = ] = ~ = =               + + + + + + + + + + +             + +       + +         + + + + +         = = . = ] . ] ] & / / > ] ] = ] = ~ = =           ",
"= = . = ] . ^ / & / / > ^ ^ = ^ = ~ = =               + + + + + + + + + + + +           + +         + +             + +         = = . = ] . ^ / & / / > ^ ^ = ^ = ~ = =           ",
"= = . ] / . ( _ & : : > / / = / = ~ = = . . . ~ ~     + + + +     + + + + + + +         + +         + +           + +           = = . ] / . ( _ & : : > / / = / = ~ = = . . . ~ ~ ",
"= = . _ _ . < < & : : > : < = < ( ~ = = ~ ~ = . =     + + + +     + + + + + + + +       + + + + +   + + +         + +           = = . _ _ . < < & : : > : < = < ( ~ = = ~ ~ = . = ",
"= [ . [ [ . } | & | | > | } = 1 2 ~ 2 [       ~ .     + + + +       + + + + + + + +     + + + +       + + +   + + +             = [ . [ [ . } | & | | > | } = 1 2 ~ 2 [       ~ . ",
"[ [ . [ 3 . 2 2 & 2 2 > 2 2 = 3 2 ~ 2 [       ~ .       + + +         + + + +                           + + + + +               [ [ . [ 3 . 2 2 & 2 2 > 2 2 = 3 2 ~ 2 [       ~ . ",
"[ [ . 2 3 . 2 2 & 2 2 > 2 2 = 1 2 ~ 2 [       ~ .                                                                               [ [ . 2 3 . 2 2 & 2 2 > 2 2 = 1 2 ~ 2 [       ~ . ",
"2 [ . [ 3 . [ 2 & [ 2 > 2 [ = 3 2 ~ 2 [       ~ .                                                                               2 [ . [ 3 . [ 2 & [ 2 > 2 [ = 3 2 ~ 2 [       ~ . ",
"2 2 . [ 3 . [ 2 & [ 3 > 2 [ = 3 2 ~ 2 [       ~ .                                                                               2 2 . [ 3 . [ 2 & [ 3 > 2 [ = 3 2 ~ 2 [       ~ . ",
"3 3 . 3 3 . 2 4 5 6 2 > 2 2 = [ [ ~ [ [       ~ .                                                                               7 3 . 3 3 . 2 2 & 2 2 > 2 2 = [ [ ~ [ [       ~ . ",
"3 3 . 3 3 . 8 7 + + + + + + + 9 0 a 9 b       c d                     + +               + + +                     + +   + + + + + 7 . 3 e d f g & 3 8 > 8 8 = [ 2 ~ [ [       ~ . ",
"3 2 . [ 3 . h 7 + + + + + + + + + + + +     + + + + + +             + + +             + + +         +             + +   + + + + e 2 . i + + + + j k 3 > 3 3 = [ [ ~ [ [       = . ",
"3 2 . [ 3 . 3 7 + + + + + + + + + + + +   + + l m + + + +           + + + +         + + +         + +           + +     + +     3 2 d + + m n o + + n > 3 3 = [ [ ~ [ [       = . ",
"3 3 . 3 3 . p 7 + + + + + + + + + + + +   + + q .     + + +       + +   + +       + + +           + +         + + +     + +     3 3 d + n . p 3 5 + + r 3 s = 3 3 ~ 3 [       = . ",
"3 3 . 3 3 . 3 7 + + + + + + + + + t 9 b   + + q .       + +       + +   + +       + +             + +         + +       + +     3 3 d + n . 3 3 & u + v 3 3 = 3 3 ~ [ [       = . ",
"3 3 . 3 3 . 3 7 + + + + + + + u 3 ~ [ [   + + q .       + +       + +   + +     + +               + +       + +         + +     g 3 d + n . 3 3 & 7 + v 3 3 = 3 3 ~ [ [       = . ",
"3 3 . 3 3 . 3 e w 7 7 x + + + k 3 ~ 3 [ . m + q ~       + +       + +     +     + +               + +     + +           + + + + + e d + n . 3 3 & 7 + v 3 3 = 3 3 ~ 3 [ . . . = ~ ",
"3 3 . 3 3 . 3 3 & 3 3 r + + + n 3 ~ 3 3 ~ a + c         + +     + +       + +   + +               + +     +             + + + + n g d + n . 3 3 y z + A 3 3 = 3 3 ~ 3 3 ~ ~ ~ ~   ",
"3 3 . 3 3 . 3 3 & B 3 r + + + n 3 ~ 3 3   + +       + + +       + +       + +   + +               + + + + +             + +     3 3 d + n . g u + + k > 3 3 = 3 3 ~ 3 3           ",
"3 B . B B . 3 3 & B B r + + + C 3 ~ 3 3   + +   + + + +         + + + + + + +   + +               + + + +               + +     3 B d + D E + + F G B > B B = B 3 ~ 3 3           ",
"B B . B B . B B & B B r + + + + B ~ B 3   + +   + +             + + + + + + +     + + +           + + + +               + +     B B d + D H + D & B B > B B = B B ~ B 3           ",
"B I . B B . B B & B B r + + + + B ~ B B   + +     + +         + +         + +       + + + + +     + + + + +             + + +   J K d + D L C + M N B > B B = I B ~ B B           ",
"O O . O P . I I & I I r + + + + Q = O B   + +       + + +     + +           +         + + + + + + + +     + + +           + + + + R d + S . T U + U V > I I = I I = O B           ",
"O O . W O . I I & I I r + + + + X = O O   + +         + + + + + +           +               +     + +       + + +         + + + Y Z d + ` . I T M + +  .I ..= I +.= O O           ",
"O O . O O . @.#.& #.#.r + + + + $.= O O     +                               +                       +         + + +             O O L + $.. @.#.& %.&.r @.*.= O O = O O           ",
". . . O O . O O & O O r ` =.q O -.= O =     +                                                                                   . . . Y Z . O O & O O > O O = O -.= O =           ",
". . . -.;.. >.,.& -.-.> O '.= -.-.~ ~ ~                                                                                         . . . -.;.. >.,.& -.-.> O '.= -.-.~ ~ ~           ",
". . . . . . . . & & & > > > = = = ~ ~ =                                                                                         . . . . . . . . & & & > > > = = = ~ ~ =           ",
"    . . . . . . & & & > > > > = = = =                                                                                               . . . . . . & & & > > > > = = = =             ",
"          . . . & & & > > > >                                                                                                             . . . & & & > > > >                     "};
